<?xml version="1.0" encoding="UTF-8"?>
<svg xmlns="http://www.w3.org/2000/svg" xmlns:xlink="http://www.w3.org/1999/xlink" width="488pt" height="246pt" viewBox="0 0 488 246" version="1.1">
<defs>
<g>
<symbol overflow="visible" id="glyph0-0">
<path style="stroke:none;" d="M 0.625 0 L 0.625 -8 L 4.375 -8 L 4.375 0 Z M 1.25 -0.625 L 3.75 -0.625 L 3.75 -7.375 L 1.25 -7.375 Z M 1.25 -0.625 "/>
</symbol>
<symbol overflow="visible" id="glyph0-1">
<path style="stroke:none;" d="M 5.28125 -2.1875 L 0.546875 -2.1875 L 0.546875 -3.015625 L 5.28125 -3.015625 Z M 5.28125 -2.1875 "/>
</symbol>
<symbol overflow="visible" id="glyph1-0">
<path style="stroke:none;" d=""/>
</symbol>
<symbol overflow="visible" id="glyph1-1">
<path style="stroke:none;" d="M 2.203125 -3.25 L 2.3125 -3.25 L 2.6875 -3.265625 C 3.65625 -3.265625 4.15625 -2.8125 4.15625 -1.96875 C 4.15625 -1.078125 3.609375 -0.546875 2.6875 -0.546875 C 1.734375 -0.546875 1.265625 -1.03125 1.203125 -2.0625 L 0.3125 -2.0625 C 0.359375 -1.484375 0.453125 -1.125 0.625 -0.796875 C 0.984375 -0.125 1.6875 0.234375 2.65625 0.234375 C 4.125 0.234375 5.0625 -0.640625 5.0625 -1.984375 C 5.0625 -2.875 4.703125 -3.375 3.859375 -3.671875 C 4.515625 -3.9375 4.84375 -4.4375 4.84375 -5.140625 C 4.84375 -6.359375 4.046875 -7.09375 2.6875 -7.09375 C 1.265625 -7.09375 0.5 -6.3125 0.46875 -4.796875 L 1.34375 -4.796875 C 1.359375 -5.234375 1.40625 -5.46875 1.515625 -5.6875 C 1.703125 -6.078125 2.15625 -6.3125 2.703125 -6.3125 C 3.484375 -6.3125 3.953125 -5.859375 3.953125 -5.109375 C 3.953125 -4.609375 3.765625 -4.3125 3.375 -4.15625 C 3.140625 -4.046875 2.828125 -4.015625 2.203125 -4 Z M 2.203125 -3.25 "/>
</symbol>
<symbol overflow="visible" id="glyph1-2">
<path style="stroke:none;" d="M 5.0625 -0.875 L 1.328125 -0.875 C 1.421875 -1.453125 1.734375 -1.8125 2.609375 -2.328125 L 3.609375 -2.875 C 4.59375 -3.40625 5.109375 -4.140625 5.109375 -5.015625 C 5.109375 -5.59375 4.875 -6.15625 4.453125 -6.53125 C 4.03125 -6.90625 3.515625 -7.09375 2.84375 -7.09375 C 1.9375 -7.09375 1.265625 -6.765625 0.875 -6.171875 C 0.625 -5.796875 0.515625 -5.34375 0.5 -4.625 L 1.375 -4.625 C 1.40625 -5.109375 1.46875 -5.40625 1.59375 -5.625 C 1.8125 -6.0625 2.28125 -6.3125 2.8125 -6.3125 C 3.609375 -6.3125 4.203125 -5.75 4.203125 -4.984375 C 4.203125 -4.4375 3.875 -3.953125 3.25 -3.59375 L 2.328125 -3.0625 C 0.84375 -2.234375 0.421875 -1.5625 0.34375 0 L 5.0625 0 Z M 5.0625 -0.875 "/>
</symbol>
<symbol overflow="visible" id="glyph1-3">
<path style="stroke:none;" d="M 2.59375 -5.046875 L 2.59375 0 L 3.46875 0 L 3.46875 -7.09375 L 2.890625 -7.09375 C 2.578125 -6 2.375 -5.84375 1.015625 -5.6875 L 1.015625 -5.046875 Z M 2.59375 -5.046875 "/>
</symbol>
<symbol overflow="visible" id="glyph1-4">
<path style="stroke:none;" d="M 2.75 -7.09375 C 2.09375 -7.09375 1.484375 -6.796875 1.125 -6.3125 C 0.65625 -5.6875 0.4375 -4.734375 0.4375 -3.4375 C 0.4375 -1.046875 1.234375 0.234375 2.75 0.234375 C 4.25 0.234375 5.0625 -1.046875 5.0625 -3.375 C 5.0625 -4.75 4.84375 -5.671875 4.375 -6.3125 C 4.015625 -6.8125 3.421875 -7.09375 2.75 -7.09375 Z M 2.75 -6.3125 C 3.703125 -6.3125 4.171875 -5.34375 4.171875 -3.453125 C 4.171875 -1.4375 3.703125 -0.5 2.734375 -0.5 C 1.796875 -0.5 1.328125 -1.484375 1.328125 -3.421875 C 1.328125 -5.359375 1.796875 -6.3125 2.75 -6.3125 Z M 2.75 -6.3125 "/>
</symbol>
<symbol overflow="visible" id="glyph1-5">
<path style="stroke:none;" d="M 1.90625 -1.046875 L 0.875 -1.046875 L 0.875 0 L 1.90625 0 Z M 1.90625 -1.046875 "/>
</symbol>
<symbol overflow="visible" id="glyph1-6">
<path style="stroke:none;" d="M 3.265625 -1.703125 L 3.265625 0 L 4.15625 0 L 4.15625 -1.703125 L 5.203125 -1.703125 L 5.203125 -2.484375 L 4.15625 -2.484375 L 4.15625 -7.09375 L 3.5 -7.09375 L 0.28125 -2.625 L 0.28125 -1.703125 Z M 3.265625 -2.484375 L 1.046875 -2.484375 L 3.265625 -5.59375 Z M 3.265625 -2.484375 "/>
</symbol>
<symbol overflow="visible" id="glyph1-7">
<path style="stroke:none;" d="M 4.984375 -5.234375 C 4.8125 -6.40625 4.046875 -7.09375 2.96875 -7.09375 C 2.1875 -7.09375 1.484375 -6.703125 1.0625 -6.078125 C 0.625 -5.390625 0.4375 -4.515625 0.4375 -3.234375 C 0.4375 -2.046875 0.609375 -1.28125 1.03125 -0.65625 C 1.40625 -0.078125 2.03125 0.234375 2.8125 0.234375 C 4.15625 0.234375 5.125 -0.765625 5.125 -2.15625 C 5.125 -3.484375 4.234375 -4.40625 2.953125 -4.40625 C 2.265625 -4.40625 1.703125 -4.140625 1.328125 -3.625 C 1.34375 -5.34375 1.90625 -6.3125 2.90625 -6.3125 C 3.53125 -6.3125 3.953125 -5.921875 4.09375 -5.234375 Z M 2.84375 -3.625 C 3.703125 -3.625 4.234375 -3.046875 4.234375 -2.09375 C 4.234375 -1.203125 3.625 -0.546875 2.8125 -0.546875 C 2 -0.546875 1.375 -1.234375 1.375 -2.140625 C 1.375 -3.015625 1.984375 -3.625 2.84375 -3.625 Z M 2.84375 -3.625 "/>
</symbol>
<symbol overflow="visible" id="glyph1-8">
<path style="stroke:none;" d="M 3.90625 -3.734375 C 4.640625 -4.171875 4.875 -4.53125 4.875 -5.203125 C 4.875 -6.3125 4.015625 -7.09375 2.75 -7.09375 C 1.5 -7.09375 0.625 -6.3125 0.625 -5.203125 C 0.625 -4.546875 0.859375 -4.1875 1.578125 -3.734375 C 0.765625 -3.34375 0.375 -2.75 0.375 -1.96875 C 0.375 -0.671875 1.34375 0.234375 2.75 0.234375 C 4.15625 0.234375 5.125 -0.671875 5.125 -1.953125 C 5.125 -2.75 4.734375 -3.34375 3.90625 -3.734375 Z M 2.75 -6.3125 C 3.5 -6.3125 3.984375 -5.875 3.984375 -5.1875 C 3.984375 -4.515625 3.484375 -4.078125 2.75 -4.078125 C 2.015625 -4.078125 1.515625 -4.515625 1.515625 -5.1875 C 1.515625 -5.875 2.015625 -6.3125 2.75 -6.3125 Z M 2.75 -3.34375 C 3.625 -3.34375 4.234375 -2.78125 4.234375 -1.953125 C 4.234375 -1.109375 3.625 -0.546875 2.734375 -0.546875 C 1.875 -0.546875 1.265625 -1.125 1.265625 -1.953125 C 1.265625 -2.78125 1.875 -3.34375 2.75 -3.34375 Z M 2.75 -3.34375 "/>
</symbol>
<symbol overflow="visible" id="glyph2-0">
<path style="stroke:none;" d=""/>
</symbol>
<symbol overflow="visible" id="glyph2-1">
<path style="stroke:none;" d="M 2.8125 -7.390625 L 4.515625 0 L 6.46875 0 L 8.140625 -7.390625 L 8.140625 0 L 10.09375 0 L 10.09375 -9.484375 L 7.15625 -9.484375 L 5.484375 -1.9375 L 3.765625 -9.484375 L 0.859375 -9.484375 L 0.859375 0 L 2.8125 0 Z M 2.8125 -7.390625 "/>
</symbol>
<symbol overflow="visible" id="glyph2-2">
<path style="stroke:none;" d="M 3.90625 -7.140625 C 1.765625 -7.140625 0.453125 -5.71875 0.453125 -3.421875 C 0.453125 -1.109375 1.765625 0.296875 3.921875 0.296875 C 6.0625 0.296875 7.390625 -1.125 7.390625 -3.359375 C 7.390625 -5.75 6.109375 -7.140625 3.90625 -7.140625 Z M 3.921875 -5.671875 C 4.921875 -5.671875 5.578125 -4.765625 5.578125 -3.390625 C 5.578125 -2.078125 4.90625 -1.171875 3.921875 -1.171875 C 2.9375 -1.171875 2.28125 -2.078125 2.28125 -3.421875 C 2.28125 -4.765625 2.9375 -5.671875 3.921875 -5.671875 Z M 3.921875 -5.671875 "/>
</symbol>
<symbol overflow="visible" id="glyph2-3">
<path style="stroke:none;" d="M 4.0625 -6.875 L 2.984375 -6.875 L 2.984375 -7.5625 C 2.984375 -7.9375 3.140625 -8.109375 3.484375 -8.109375 C 3.640625 -8.109375 3.84375 -8.09375 4 -8.078125 L 4 -9.4375 C 3.671875 -9.46875 3.21875 -9.484375 2.96875 -9.484375 C 1.75 -9.484375 1.171875 -8.90625 1.171875 -7.71875 L 1.171875 -6.875 L 0.1875 -6.875 L 0.1875 -5.671875 L 1.171875 -5.671875 L 1.171875 0 L 2.984375 0 L 2.984375 -5.671875 L 4.0625 -5.671875 Z M 4.0625 -6.875 "/>
</symbol>
<symbol overflow="visible" id="glyph2-4">
<path style="stroke:none;" d="M 6.8125 -0.21875 C 6.484375 -0.515625 6.390625 -0.71875 6.390625 -1.078125 L 6.390625 -4.984375 C 6.390625 -6.40625 5.421875 -7.140625 3.515625 -7.140625 C 1.625 -7.140625 0.640625 -6.328125 0.515625 -4.703125 L 2.28125 -4.703125 C 2.359375 -5.4375 2.671875 -5.671875 3.5625 -5.671875 C 4.265625 -5.671875 4.609375 -5.4375 4.609375 -4.96875 C 4.609375 -4.734375 4.5 -4.53125 4.296875 -4.421875 C 4.0625 -4.296875 4.0625 -4.296875 3.15625 -4.140625 L 2.4375 -4.015625 C 1.046875 -3.78125 0.359375 -3.0625 0.359375 -1.8125 C 0.359375 -1.203125 0.53125 -0.71875 0.859375 -0.359375 C 1.265625 0.046875 1.875 0.296875 2.5 0.296875 C 3.28125 0.296875 3.984375 -0.03125 4.625 -0.703125 C 4.625 -0.34375 4.671875 -0.203125 4.84375 0 L 6.8125 0 Z M 4.609375 -2.828125 C 4.609375 -1.765625 4.09375 -1.171875 3.171875 -1.171875 C 2.5625 -1.171875 2.1875 -1.5 2.1875 -2.015625 C 2.1875 -2.5625 2.46875 -2.828125 3.21875 -2.984375 L 3.84375 -3.09375 C 4.328125 -3.1875 4.40625 -3.21875 4.609375 -3.3125 Z M 4.609375 -2.828125 "/>
</symbol>
<symbol overflow="visible" id="glyph2-5">
<path style="stroke:none;" d="M 3.90625 -6.875 L 2.90625 -6.875 L 2.90625 -8.765625 L 1.078125 -8.765625 L 1.078125 -6.875 L 0.1875 -6.875 L 0.1875 -5.671875 L 1.078125 -5.671875 L 1.078125 -1.359375 C 1.078125 -0.25 1.65625 0.296875 2.859375 0.296875 C 3.265625 0.296875 3.59375 0.265625 3.90625 0.15625 L 3.90625 -1.125 C 3.734375 -1.09375 3.625 -1.078125 3.5 -1.078125 C 3.015625 -1.078125 2.90625 -1.21875 2.90625 -1.84375 L 2.90625 -5.671875 L 3.90625 -5.671875 Z M 3.90625 -6.875 "/>
</symbol>
<symbol overflow="visible" id="glyph2-6">
<path style="stroke:none;" d="M 6.65625 -1.625 L 2.75 -1.625 C 2.984375 -2.125 3.28125 -2.375 4.625 -3.359375 C 6.234375 -4.53125 6.6875 -5.234375 6.6875 -6.484375 C 6.6875 -8.265625 5.46875 -9.40625 3.53125 -9.40625 C 1.625 -9.40625 0.5 -8.28125 0.5 -6.328125 C 0.5 -6.25 0.5 -6.15625 0.515625 -6 L 2.265625 -6 L 2.265625 -6.3125 C 2.265625 -7.328125 2.75 -7.9375 3.578125 -7.9375 C 4.375 -7.9375 4.875 -7.375 4.875 -6.453125 C 4.875 -5.4375 4.546875 -5.03125 2.515625 -3.59375 C 0.96875 -2.515625 0.484375 -1.703125 0.390625 0 L 6.65625 0 Z M 6.65625 -1.625 "/>
</symbol>
<symbol overflow="visible" id="glyph2-7">
<path style="stroke:none;" d="M 2.78125 -1.890625 L 0.828125 -1.890625 L 0.828125 0 L 2.78125 0 Z M 2.78125 -1.890625 "/>
</symbol>
<symbol overflow="visible" id="glyph2-8">
<path style="stroke:none;" d="M 6.359375 -9.21875 L 1.4375 -9.21875 L 0.609375 -4.078125 L 2.25 -4.078125 C 2.4375 -4.53125 2.859375 -4.78125 3.421875 -4.78125 C 4.34375 -4.78125 4.90625 -4.125 4.90625 -3 C 4.90625 -1.921875 4.328125 -1.265625 3.421875 -1.265625 C 2.625 -1.265625 2.1875 -1.65625 2.140625 -2.40625 L 0.34375 -2.40625 C 0.375 -0.796875 1.59375 0.296875 3.390625 0.296875 C 5.375 0.296875 6.71875 -1.046875 6.71875 -3.046875 C 6.71875 -4.921875 5.546875 -6.234375 3.84375 -6.234375 C 3.234375 -6.234375 2.78125 -6.078125 2.25 -5.671875 L 2.546875 -7.59375 L 6.359375 -7.59375 Z M 6.359375 -9.21875 "/>
</symbol>
<symbol overflow="visible" id="glyph2-9">
<path style="stroke:none;" d="M 6.78125 -3.546875 L 5.828125 -3.546875 L 5.828125 -9.21875 L 3.671875 -9.21875 L 0.3125 -3.578125 L 0.3125 -2.046875 L 4 -2.046875 L 4 0 L 5.828125 0 L 5.828125 -2.046875 L 6.78125 -2.046875 Z M 4 -3.546875 L 1.59375 -3.546875 L 4 -7.484375 Z M 4 -3.546875 "/>
</symbol>
<symbol overflow="visible" id="glyph2-10">
<path style="stroke:none;" d="M 6.59375 -7.125 C 6.5 -7.71875 6.390625 -8.015625 6.15625 -8.359375 C 5.671875 -9.015625 4.828125 -9.40625 3.828125 -9.40625 C 2.671875 -9.40625 1.734375 -8.90625 1.1875 -7.984375 C 0.640625 -7.078125 0.421875 -6.0625 0.421875 -4.375 C 0.421875 -2.796875 0.609375 -1.8125 1.078125 -1.0625 C 1.609375 -0.203125 2.578125 0.296875 3.671875 0.296875 C 5.5 0.296875 6.75 -1.078125 6.75 -3.078125 C 6.75 -4.84375 5.65625 -6.078125 4.0625 -6.078125 C 3.3125 -6.078125 2.8125 -5.84375 2.234375 -5.25 C 2.28125 -6.234375 2.28125 -6.234375 2.359375 -6.609375 C 2.515625 -7.453125 3.046875 -7.9375 3.765625 -7.9375 C 4.359375 -7.9375 4.671875 -7.703125 4.90625 -7.125 Z M 3.625 -4.640625 C 4.46875 -4.640625 5.015625 -3.984375 5.015625 -2.96875 C 5.015625 -1.96875 4.421875 -1.265625 3.609375 -1.265625 C 2.78125 -1.265625 2.203125 -1.953125 2.203125 -2.921875 C 2.203125 -3.9375 2.78125 -4.640625 3.625 -4.640625 Z M 3.625 -4.640625 "/>
</symbol>
<symbol overflow="visible" id="glyph2-11">
<path style="stroke:none;" d="M 3.09375 -6.359375 L 3.09375 0 L 4.90625 0 L 4.90625 -9.21875 L 3.703125 -9.21875 C 3.421875 -8.125 2.46875 -7.5625 0.890625 -7.5625 L 0.890625 -6.359375 Z M 3.09375 -6.359375 "/>
</symbol>
<symbol overflow="visible" id="glyph2-12">
<path style="stroke:none;" d="M 3.546875 -9.40625 C 2.5625 -9.40625 1.71875 -9 1.15625 -8.234375 C 0.625 -7.515625 0.375 -6.328125 0.375 -4.546875 C 0.375 -2.921875 0.59375 -1.765625 1.03125 -1.0625 C 1.578125 -0.1875 2.46875 0.296875 3.546875 0.296875 C 4.546875 0.296875 5.375 -0.109375 5.9375 -0.890625 C 6.46875 -1.59375 6.71875 -2.78125 6.71875 -4.5 C 6.71875 -6.1875 6.515625 -7.328125 6.078125 -8.046875 C 5.53125 -8.9375 4.625 -9.40625 3.546875 -9.40625 Z M 3.546875 -7.9375 C 4.015625 -7.9375 4.390625 -7.6875 4.609375 -7.203125 C 4.796875 -6.8125 4.90625 -5.796875 4.90625 -4.53125 C 4.90625 -3.515625 4.796875 -2.46875 4.671875 -2.109375 C 4.453125 -1.5625 4.0625 -1.265625 3.546875 -1.265625 C 3.0625 -1.265625 2.703125 -1.515625 2.484375 -1.96875 C 2.296875 -2.359375 2.203125 -3.34375 2.203125 -4.5625 C 2.203125 -5.640625 2.296875 -6.6875 2.4375 -7.078125 C 2.640625 -7.625 3.03125 -7.9375 3.546875 -7.9375 Z M 3.546875 -7.9375 "/>
</symbol>
<symbol overflow="visible" id="glyph2-13">
<path style="stroke:none;" d="M 2.90625 -4.078125 L 7.0625 -4.078125 L 7.0625 -5.703125 L 2.90625 -5.703125 L 2.90625 -7.859375 L 7.625 -7.859375 L 7.625 -9.484375 L 0.96875 -9.484375 L 0.96875 0 L 2.90625 0 Z M 2.90625 -4.078125 "/>
</symbol>
<symbol overflow="visible" id="glyph2-14">
<path style="stroke:none;" d="M 9.484375 0 L 12.109375 -9.484375 L 10.046875 -9.484375 L 8.625 -2.359375 L 7.09375 -9.484375 L 5.171875 -9.484375 L 3.703125 -2.375 L 2.234375 -9.484375 L 0.171875 -9.484375 L 2.84375 0 L 4.609375 0 L 6.15625 -7.390625 L 7.734375 0 Z M 9.484375 0 "/>
</symbol>
<symbol overflow="visible" id="glyph2-15">
<path style="stroke:none;" d="M 5 -7.859375 L 7.78125 -7.859375 L 7.78125 -9.484375 L 0.1875 -9.484375 L 0.1875 -7.859375 L 3.0625 -7.859375 L 3.0625 0 L 5 0 Z M 5 -7.859375 "/>
</symbol>
<symbol overflow="visible" id="glyph3-0">
<path style="stroke:none;" d="M 0.8125 0 L 0.8125 -10.390625 L 5.6875 -10.390625 L 5.6875 0 Z M 1.625 -0.8125 L 4.875 -0.8125 L 4.875 -9.578125 L 1.625 -9.578125 Z M 1.625 -0.8125 "/>
</symbol>
<symbol overflow="visible" id="glyph3-1">
<path style="stroke:none;" d="M 7.859375 -7.546875 C 7.859375 -7.253906 7.800781 -6.976562 7.6875 -6.71875 C 7.582031 -6.457031 7.4375 -6.21875 7.25 -6 C 7.070312 -5.789062 6.863281 -5.609375 6.625 -5.453125 C 6.382812 -5.304688 6.125 -5.203125 5.84375 -5.140625 C 6.101562 -5.097656 6.332031 -5.019531 6.53125 -4.90625 C 6.726562 -4.789062 6.894531 -4.648438 7.03125 -4.484375 C 7.164062 -4.316406 7.265625 -4.125 7.328125 -3.90625 C 7.398438 -3.6875 7.4375 -3.445312 7.4375 -3.1875 C 7.4375 -2.90625 7.398438 -2.625 7.328125 -2.34375 C 7.253906 -2.070312 7.144531 -1.8125 7 -1.5625 C 6.863281 -1.3125 6.695312 -1.082031 6.5 -0.875 C 6.3125 -0.664062 6.097656 -0.484375 5.859375 -0.328125 C 5.628906 -0.179688 5.378906 -0.0664062 5.109375 0.015625 C 4.835938 0.109375 4.554688 0.15625 4.265625 0.15625 C 3.835938 0.15625 3.453125 0.0625 3.109375 -0.125 C 2.773438 -0.320312 2.5 -0.609375 2.28125 -0.984375 L 1.53125 2.5625 L -0.265625 2.5625 L 1.546875 -6 C 1.597656 -6.257812 1.664062 -6.515625 1.75 -6.765625 C 1.84375 -7.023438 1.953125 -7.269531 2.078125 -7.5 C 2.203125 -7.738281 2.347656 -7.960938 2.515625 -8.171875 C 2.691406 -8.378906 2.890625 -8.5625 3.109375 -8.71875 C 3.453125 -8.957031 3.820312 -9.140625 4.21875 -9.265625 C 4.625 -9.398438 5.035156 -9.46875 5.453125 -9.46875 C 5.734375 -9.46875 6.015625 -9.425781 6.296875 -9.34375 C 6.585938 -9.269531 6.847656 -9.15625 7.078125 -9 C 7.304688 -8.84375 7.492188 -8.644531 7.640625 -8.40625 C 7.785156 -8.164062 7.859375 -7.878906 7.859375 -7.546875 Z M 6.078125 -7.140625 C 6.078125 -7.285156 6.050781 -7.414062 6 -7.53125 C 5.945312 -7.644531 5.875 -7.738281 5.78125 -7.8125 C 5.6875 -7.894531 5.578125 -7.957031 5.453125 -8 C 5.328125 -8.039062 5.203125 -8.0625 5.078125 -8.0625 C 4.867188 -8.0625 4.6875 -8.023438 4.53125 -7.953125 C 4.375 -7.890625 4.238281 -7.800781 4.125 -7.6875 C 4.007812 -7.582031 3.90625 -7.457031 3.8125 -7.3125 C 3.726562 -7.164062 3.65625 -7.007812 3.59375 -6.84375 C 3.53125 -6.6875 3.476562 -6.519531 3.4375 -6.34375 C 3.394531 -6.175781 3.351562 -6.015625 3.3125 -5.859375 C 3.25 -5.585938 3.179688 -5.320312 3.109375 -5.0625 C 3.046875 -4.800781 2.984375 -4.539062 2.921875 -4.28125 C 2.867188 -4.019531 2.828125 -3.753906 2.796875 -3.484375 C 2.765625 -3.222656 2.75 -2.957031 2.75 -2.6875 C 2.75 -2.5 2.773438 -2.316406 2.828125 -2.140625 C 2.890625 -1.972656 2.976562 -1.820312 3.09375 -1.6875 C 3.207031 -1.5625 3.34375 -1.457031 3.5 -1.375 C 3.664062 -1.300781 3.847656 -1.265625 4.046875 -1.265625 C 4.285156 -1.265625 4.5 -1.316406 4.6875 -1.421875 C 4.882812 -1.535156 5.050781 -1.679688 5.1875 -1.859375 C 5.320312 -2.035156 5.421875 -2.234375 5.484375 -2.453125 C 5.554688 -2.671875 5.59375 -2.890625 5.59375 -3.109375 C 5.59375 -3.378906 5.546875 -3.601562 5.453125 -3.78125 C 5.359375 -3.96875 5.234375 -4.117188 5.078125 -4.234375 C 4.921875 -4.347656 4.738281 -4.425781 4.53125 -4.46875 C 4.320312 -4.519531 4.097656 -4.546875 3.859375 -4.546875 L 3.84375 -4.546875 L 4.046875 -5.53125 C 4.285156 -5.539062 4.523438 -5.578125 4.765625 -5.640625 C 5.003906 -5.710938 5.222656 -5.8125 5.421875 -5.9375 C 5.617188 -6.070312 5.773438 -6.238281 5.890625 -6.4375 C 6.015625 -6.644531 6.078125 -6.878906 6.078125 -7.140625 Z M 6.078125 -7.140625 "/>
</symbol>
<symbol overflow="visible" id="glyph3-2">
<path style="stroke:none;" d="M 7.046875 -3.953125 L 0.546875 -3.953125 L 0.546875 -5.59375 L 7.046875 -5.59375 Z M 7.046875 -1.15625 L 0.546875 -1.15625 L 0.546875 -2.78125 L 7.046875 -2.78125 Z M 7.046875 -1.15625 "/>
</symbol>
<symbol overflow="visible" id="glyph3-3">
<path style="stroke:none;" d="M 3.90625 -9.46875 C 3.675781 -8.957031 3.46875 -8.457031 3.28125 -7.96875 C 3.09375 -7.476562 2.929688 -6.984375 2.796875 -6.484375 C 2.671875 -5.984375 2.570312 -5.472656 2.5 -4.953125 C 2.425781 -4.429688 2.390625 -3.890625 2.390625 -3.328125 C 2.390625 -2.785156 2.425781 -2.253906 2.5 -1.734375 C 2.570312 -1.222656 2.671875 -0.71875 2.796875 -0.21875 C 2.929688 0.28125 3.085938 0.773438 3.265625 1.265625 C 3.453125 1.753906 3.660156 2.242188 3.890625 2.734375 L 2.671875 2.734375 C 2.367188 2.285156 2.09375 1.816406 1.84375 1.328125 C 1.601562 0.835938 1.394531 0.335938 1.21875 -0.171875 C 1.039062 -0.691406 0.90625 -1.21875 0.8125 -1.75 C 0.71875 -2.28125 0.671875 -2.816406 0.671875 -3.359375 C 0.671875 -3.910156 0.71875 -4.453125 0.8125 -4.984375 C 0.90625 -5.523438 1.039062 -6.050781 1.21875 -6.5625 C 1.394531 -7.082031 1.601562 -7.582031 1.84375 -8.0625 C 2.09375 -8.550781 2.375 -9.019531 2.6875 -9.46875 Z M 3.90625 -9.46875 "/>
</symbol>
<symbol overflow="visible" id="glyph3-4">
<path style="stroke:none;" d="M 3.65625 -3.46875 C 3.65625 -2.914062 3.609375 -2.367188 3.515625 -1.828125 C 3.421875 -1.285156 3.285156 -0.75 3.109375 -0.21875 C 2.929688 0.300781 2.722656 0.804688 2.484375 1.296875 C 2.242188 1.796875 1.96875 2.273438 1.65625 2.734375 L 0.4375 2.734375 C 0.664062 2.253906 0.867188 1.769531 1.046875 1.28125 C 1.234375 0.789062 1.390625 0.289062 1.515625 -0.21875 C 1.648438 -0.726562 1.753906 -1.238281 1.828125 -1.75 C 1.898438 -2.269531 1.9375 -2.796875 1.9375 -3.328125 C 1.9375 -3.890625 1.898438 -4.429688 1.828125 -4.953125 C 1.765625 -5.472656 1.664062 -5.976562 1.53125 -6.46875 C 1.40625 -6.96875 1.25 -7.460938 1.0625 -7.953125 C 0.875 -8.453125 0.664062 -8.957031 0.4375 -9.46875 L 1.640625 -9.46875 C 1.941406 -9.03125 2.21875 -8.570312 2.46875 -8.09375 C 2.71875 -7.613281 2.925781 -7.117188 3.09375 -6.609375 C 3.269531 -6.109375 3.40625 -5.59375 3.5 -5.0625 C 3.601562 -4.539062 3.65625 -4.007812 3.65625 -3.46875 Z M 3.65625 -3.46875 "/>
</symbol>
</g>
<clipPath id="clip1">
  <path d="M 0 6.960938 L 360 6.960938 L 360 230.160156 L 0 230.160156 Z M 0 6.960938 "/>
</clipPath>
<clipPath id="clip2">
  <path d="M 373.921875 74 L 394.078125 74 L 394.078125 77 L 373.921875 77 Z M 373.921875 74 "/>
</clipPath>
<clipPath id="clip3">
  <path d="M 373.921875 97 L 394.078125 97 L 394.078125 100 L 373.921875 100 Z M 373.921875 97 "/>
</clipPath>
<clipPath id="clip4">
  <path d="M 373.921875 120 L 394.078125 120 L 394.078125 124 L 373.921875 124 Z M 373.921875 120 "/>
</clipPath>
<clipPath id="clip5">
  <path d="M 373.921875 144 L 394.078125 144 L 394.078125 147 L 373.921875 147 Z M 373.921875 144 "/>
</clipPath>
<clipPath id="clip6">
  <path d="M 373.921875 167 L 394.078125 167 L 394.078125 170 L 373.921875 170 Z M 373.921875 167 "/>
</clipPath>
</defs>
<g id="surface1">
<g clip-path="url(#clip1)" clip-rule="nonzero">
<path style="fill:none;stroke-width:1.6;stroke-linecap:square;stroke-linejoin:miter;stroke:rgb(36.84082%,50.67749%,70.979309%);stroke-opacity:1;stroke-miterlimit:3.25;" d="M 73.679688 237.171875 L 73.890625 237.171875 L 74.101562 237.167969 L 74.527344 237.164062 L 75.371094 237.15625 L 77.0625 237.140625 L 77.167969 237.136719 L 77.484375 237.136719 L 77.90625 237.128906 L 78.753906 237.121094 L 80.445312 237.101562 L 80.675781 237.101562 L 80.902344 237.097656 L 81.363281 237.089844 L 82.277344 237.082031 L 84.113281 237.058594 L 84.226562 237.054688 L 84.339844 237.054688 L 84.570312 237.050781 L 85.027344 237.046875 L 85.945312 237.03125 L 87.777344 237.007812 L 87.886719 237.003906 L 87.992188 237.003906 L 88.207031 237 L 88.632812 236.992188 L 89.492188 236.980469 L 91.203125 236.953125 L 91.308594 236.949219 L 91.417969 236.949219 L 91.628906 236.945312 L 92.058594 236.9375 L 94.625 236.890625 L 94.730469 236.890625 L 94.835938 236.886719 L 95.046875 236.882812 L 95.464844 236.875 L 96.304688 236.859375 L 97.984375 236.824219 L 98.089844 236.824219 L 98.191406 236.820312 L 98.824219 236.808594 L 99.660156 236.789062 L 101.339844 236.75 L 101.453125 236.746094 L 101.566406 236.746094 L 101.796875 236.738281 L 102.25 236.726562 L 104.980469 236.65625 L 105.09375 236.652344 L 105.207031 236.652344 L 105.4375 236.644531 L 105.890625 236.632812 L 108.621094 236.550781 L 108.730469 236.546875 L 109.046875 236.535156 L 109.472656 236.523438 L 110.320312 236.496094 L 112.019531 236.4375 L 112.128906 236.433594 L 112.445312 236.421875 L 112.871094 236.40625 L 113.71875 236.375 L 115.417969 236.308594 L 115.535156 236.300781 L 115.648438 236.296875 L 115.878906 236.289062 L 117.261719 236.230469 L 119.101562 236.144531 L 119.21875 236.140625 L 119.332031 236.136719 L 120.023438 236.101562 L 120.941406 236.054688 L 122.785156 235.960938 L 123.011719 235.945312 L 123.238281 235.933594 L 123.6875 235.910156 L 124.59375 235.855469 L 126.398438 235.746094 L 126.625 235.730469 L 126.851562 235.71875 L 127.304688 235.6875 L 128.207031 235.628906 L 130.015625 235.5 L 130.859375 235.4375 L 131.703125 235.371094 L 133.386719 235.230469 L 133.597656 235.214844 L 134.230469 235.15625 L 135.074219 235.082031 L 136.761719 234.921875 L 136.988281 234.898438 L 137.21875 234.875 L 138.589844 234.734375 L 140.417969 234.527344 L 140.53125 234.515625 L 140.648438 234.5 L 140.875 234.476562 L 141.332031 234.421875 L 142.246094 234.308594 L 144.074219 234.066406 L 144.183594 234.050781 L 144.289062 234.035156 L 144.503906 234.007812 L 145.78125 233.820312 L 147.488281 233.558594 L 147.597656 233.539062 L 147.703125 233.523438 L 147.917969 233.488281 L 148.34375 233.417969 L 149.195312 233.273438 L 150.902344 232.960938 L 151.113281 232.921875 L 151.320312 232.882812 L 151.738281 232.800781 L 152.578125 232.632812 L 154.25 232.277344 L 154.460938 232.230469 L 154.667969 232.183594 L 155.085938 232.085938 L 155.925781 231.890625 L 157.597656 231.46875 L 157.710938 231.441406 L 158.050781 231.347656 L 158.503906 231.226562 L 159.414062 230.972656 L 161.230469 230.429688 L 161.457031 230.359375 L 161.683594 230.285156 L 162.136719 230.140625 L 163.042969 229.835938 L 164.859375 229.183594 L 165.070312 229.105469 L 165.285156 229.023438 L 165.707031 228.859375 L 166.554688 228.519531 L 168.25 227.796875 L 168.460938 227.703125 L 168.671875 227.605469 L 169.097656 227.410156 L 169.941406 227.007812 L 171.636719 226.144531 L 171.753906 226.082031 L 171.867188 226.019531 L 172.097656 225.898438 L 172.554688 225.644531 L 173.472656 225.117188 L 175.308594 223.992188 L 175.425781 223.917969 L 175.539062 223.839844 L 175.769531 223.691406 L 176.226562 223.382812 L 177.148438 222.75 L 178.984375 221.378906 L 179.097656 221.289062 L 179.207031 221.203125 L 179.433594 221.023438 L 179.882812 220.65625 L 180.785156 219.898438 L 182.589844 218.273438 L 182.703125 218.164062 L 182.8125 218.058594 L 183.039062 217.839844 L 183.492188 217.398438 L 184.390625 216.480469 L 186.195312 214.507812 L 186.40625 214.265625 L 186.613281 214.019531 L 187.035156 213.523438 L 187.875 212.492188 L 189.558594 210.289062 L 189.769531 210 L 189.976562 209.707031 L 190.398438 209.109375 L 191.238281 207.878906 L 192.921875 205.25 L 193.148438 204.875 L 193.375 204.496094 L 193.832031 203.722656 L 194.742188 202.125 L 196.566406 198.691406 L 196.683594 198.464844 L 196.796875 198.238281 L 197.023438 197.78125 L 197.480469 196.851562 L 198.390625 194.921875 L 200.214844 190.796875 L 200.320312 190.542969 L 200.429688 190.289062 L 200.640625 189.777344 L 201.066406 188.742188 L 201.917969 186.597656 L 203.621094 182.039062 L 203.832031 181.445312 L 204.046875 180.84375 L 204.46875 179.621094 L 205.320312 177.109375 L 207.023438 171.78125 L 207.140625 171.402344 L 207.253906 171.027344 L 207.484375 170.265625 L 207.945312 168.722656 L 208.867188 165.542969 L 210.710938 158.8125 L 214.402344 143.851562 L 214.515625 143.363281 L 214.628906 142.871094 L 214.855469 141.878906 L 215.308594 139.878906 L 216.210938 135.792969 L 218.023438 127.292969 L 221.644531 109.15625 L 228.402344 73.246094 L 228.515625 72.640625 L 228.632812 72.039062 L 228.859375 70.832031 L 229.316406 68.433594 L 230.234375 63.695312 L 232.066406 54.523438 L 232.292969 53.414062 L 232.523438 52.3125 L 232.980469 50.140625 L 233.898438 45.917969 L 235.726562 38.0625 L 235.835938 37.632812 L 235.941406 37.203125 L 236.15625 36.359375 L 236.582031 34.707031 L 237.4375 31.570312 L 237.546875 31.195312 L 237.652344 30.824219 L 237.867188 30.089844 L 238.292969 28.675781 L 239.148438 26.035156 L 239.253906 25.722656 L 239.363281 25.414062 L 239.574219 24.816406 L 240.003906 23.664062 L 240.109375 23.386719 L 240.21875 23.117188 L 240.429688 22.585938 L 240.859375 21.582031 L 240.964844 21.339844 L 241.074219 21.105469 L 241.285156 20.648438 L 241.714844 19.792969 L 241.925781 19.394531 L 242.140625 19.015625 L 242.570312 18.316406 L 242.671875 18.15625 L 242.777344 18.003906 L 242.988281 17.707031 L 243.09375 17.566406 L 243.199219 17.433594 L 243.40625 17.175781 L 243.511719 17.054688 L 243.617188 16.941406 L 243.824219 16.722656 L 243.929688 16.621094 L 244.035156 16.527344 L 244.246094 16.347656 L 244.351562 16.265625 L 244.453125 16.191406 L 244.558594 16.121094 L 244.664062 16.054688 L 244.769531 15.992188 L 244.980469 15.882812 L 245.082031 15.839844 L 245.1875 15.796875 L 245.292969 15.761719 L 245.398438 15.730469 L 245.503906 15.703125 L 245.605469 15.679688 L 245.710938 15.664062 L 245.816406 15.652344 L 246.027344 15.644531 L 246.132812 15.648438 L 246.234375 15.660156 L 246.339844 15.671875 L 246.445312 15.691406 L 246.550781 15.714844 L 246.65625 15.742188 L 246.761719 15.777344 L 246.863281 15.816406 L 246.96875 15.859375 L 247.074219 15.910156 L 247.179688 15.964844 L 247.285156 16.023438 L 247.390625 16.085938 L 247.597656 16.230469 L 247.703125 16.308594 L 247.808594 16.390625 L 248.015625 16.574219 L 248.121094 16.671875 L 248.226562 16.777344 L 248.4375 17 L 248.542969 17.117188 L 248.644531 17.238281 L 248.855469 17.5 L 249.273438 18.082031 L 249.386719 18.25 L 249.503906 18.425781 L 249.730469 18.796875 L 250.183594 19.601562 L 250.296875 19.816406 L 250.410156 20.039062 L 250.640625 20.496094 L 251.09375 21.472656 L 251.207031 21.730469 L 251.320312 21.996094 L 251.546875 22.535156 L 252.003906 23.683594 L 252.914062 26.210938 L 253.027344 26.550781 L 253.140625 26.894531 L 253.367188 27.59375 L 253.820312 29.050781 L 254.730469 32.171875 L 256.550781 39.199219 L 256.761719 40.082031 L 256.972656 40.976562 L 257.398438 42.796875 L 258.246094 46.570312 L 259.945312 54.570312 L 263.339844 71.878906 L 270.695312 110.921875 L 270.808594 111.503906 L 270.921875 112.082031 L 271.148438 113.242188 L 271.601562 115.539062 L 272.503906 120.078125 L 274.308594 128.882812 L 274.535156 129.953125 L 274.761719 131.019531 L 275.210938 133.132812 L 276.113281 137.28125 L 277.921875 145.238281 L 278.027344 145.6875 L 278.132812 146.132812 L 278.339844 147.027344 L 278.761719 148.789062 L 279.605469 152.238281 L 281.289062 158.820312 L 281.394531 159.21875 L 281.710938 160.402344 L 282.132812 161.957031 L 282.972656 164.988281 L 284.660156 170.738281 L 284.886719 171.488281 L 285.113281 172.230469 L 285.570312 173.6875 L 286.484375 176.523438 L 288.3125 181.847656 L 288.425781 182.167969 L 288.539062 182.484375 L 288.769531 183.113281 L 289.226562 184.347656 L 290.136719 186.738281 L 291.964844 191.222656 L 292.070312 191.46875 L 292.179688 191.71875 L 292.390625 192.210938 L 292.816406 193.179688 L 293.671875 195.054688 L 295.375 198.578125 L 295.480469 198.789062 L 295.589844 198.996094 L 295.800781 199.410156 L 296.226562 200.226562 L 297.082031 201.808594 L 298.785156 204.765625 L 298.996094 205.109375 L 299.203125 205.449219 L 299.621094 206.121094 L 300.457031 207.421875 L 302.128906 209.855469 L 302.339844 210.144531 L 302.546875 210.429688 L 302.964844 210.992188 L 303.800781 212.082031 L 305.472656 214.125 L 305.585938 214.253906 L 305.699219 214.386719 L 305.925781 214.644531 L 306.378906 215.15625 L 307.285156 216.140625 L 309.101562 217.976562 L 309.214844 218.082031 L 309.328125 218.191406 L 309.554688 218.40625 L 310.007812 218.828125 L 310.914062 219.640625 L 312.726562 221.152344 L 312.832031 221.234375 L 312.9375 221.320312 L 313.152344 221.484375 L 313.574219 221.808594 L 314.421875 222.4375 L 316.113281 223.613281 L 316.324219 223.753906 L 316.957031 224.164062 L 317.804688 224.6875 L 319.496094 225.671875 L 319.613281 225.738281 L 319.726562 225.800781 L 319.957031 225.925781 L 320.414062 226.171875 L 321.332031 226.644531 L 323.167969 227.53125 L 323.28125 227.582031 L 323.394531 227.636719 L 323.625 227.738281 L 324.082031 227.945312 L 325 228.335938 L 326.835938 229.070312 L 326.941406 229.109375 L 327.050781 229.152344 L 327.265625 229.230469 L 327.691406 229.390625 L 328.546875 229.695312 L 330.261719 230.269531 L 330.367188 230.304688 L 330.476562 230.335938 L 330.691406 230.40625 L 331.117188 230.539062 L 331.976562 230.796875 L 333.6875 231.28125 L 334.109375 231.390625 L 334.527344 231.503906 L 335.367188 231.714844 L 337.046875 232.117188 L 337.46875 232.210938 L 337.886719 232.304688 L 338.726562 232.488281 L 340.40625 232.828125 L 340.632812 232.875 L 340.863281 232.917969 L 341.316406 233.003906 L 342.226562 233.171875 L 344.050781 233.484375 L 344.164062 233.5 L 344.503906 233.558594 L 344.960938 233.628906 L 345.871094 233.769531 L 347.695312 234.035156 L 347.800781 234.046875 L 348.117188 234.09375 L 348.542969 234.148438 L 349.394531 234.261719 L 351.09375 234.472656 L 351.304688 234.496094 L 351.519531 234.519531 L 351.945312 234.570312 L 352.792969 234.664062 L 354.496094 234.847656 L 354.609375 234.859375 L 354.726562 234.871094 L 354.957031 234.894531 L 355.414062 234.9375 L 356.335938 235.027344 L 358.179688 235.195312 L 358.292969 235.203125 L 358.410156 235.214844 L 359.101562 235.273438 L 360.023438 235.347656 L 361.863281 235.488281 L 361.976562 235.5 L 362.769531 235.554688 L 363.671875 235.621094 L 365.484375 235.738281 L 365.59375 235.746094 L 365.933594 235.769531 L 367.292969 235.851562 L 369.101562 235.953125 L 369.207031 235.957031 L 369.3125 235.964844 L 369.945312 236 L 370.789062 236.042969 L 372.476562 236.125 L 372.582031 236.132812 L 372.898438 236.144531 L 374.164062 236.203125 L 375.851562 236.277344 L 376.078125 236.285156 L 376.308594 236.296875 L 376.765625 236.316406 L 377.679688 236.351562 L 379.511719 236.417969 L 379.625 236.425781 L 379.738281 236.429688 L 379.96875 236.4375 L 381.339844 236.484375 L 383.167969 236.542969 L 383.277344 236.546875 L 383.382812 236.550781 L 383.597656 236.558594 L 384.023438 236.570312 L 384.878906 236.597656 L 386.585938 236.644531 L 386.691406 236.648438 L 386.800781 236.652344 L 387.011719 236.65625 L 387.441406 236.667969 L 388.292969 236.691406 L 390.003906 236.734375 L 390.105469 236.734375 L 390.210938 236.738281 L 390.421875 236.742188 L 390.839844 236.753906 L 391.675781 236.773438 L 393.351562 236.8125 L 393.457031 236.8125 L 393.5625 236.816406 L 393.769531 236.820312 L 394.1875 236.828125 L 395.027344 236.847656 L 396.699219 236.878906 L 396.8125 236.882812 L 396.929688 236.882812 L 397.609375 236.894531 L 398.515625 236.914062 L 400.335938 236.945312 L 403.96875 237.003906 L 404.179688 237.003906 L 404.390625 237.007812 L 404.816406 237.015625 L 407.359375 237.050781 L 407.464844 237.050781 L 407.570312 237.054688 L 407.78125 237.054688 L 408.207031 237.0625 L 409.054688 237.070312 L 410.75 237.09375 L 410.867188 237.09375 L 410.984375 237.097656 L 411.222656 237.097656 L 411.695312 237.105469 L 412.640625 237.113281 L 414.535156 237.136719 L 414.769531 237.136719 L 415.007812 237.140625 L 415.480469 237.144531 L 416.425781 237.15625 L 416.664062 237.15625 L 416.902344 237.160156 L 417.375 237.164062 L 417.492188 237.164062 L 417.609375 237.167969 L 417.964844 237.167969 L 418.082031 237.171875 L 418.320312 237.171875 " transform="matrix(1,0,0,1,-66,-8)"/>
<path style="fill:none;stroke-width:1.6;stroke-linecap:square;stroke-linejoin:miter;stroke:rgb(88.070679%,61.103821%,14.204407%);stroke-opacity:1;stroke-miterlimit:3.25;" d="M 73.679688 237.511719 L 81.363281 237.511719 L 82.277344 237.507812 L 88.632812 237.507812 L 89.492188 237.503906 L 92.914062 237.503906 L 94.625 237.5 L 97.984375 237.5 L 98.089844 237.496094 L 101.339844 237.496094 L 101.453125 237.492188 L 103.160156 237.492188 L 104.980469 237.488281 L 105.890625 237.488281 L 106.800781 237.484375 L 108.730469 237.484375 L 108.835938 237.480469 L 110.320312 237.480469 L 112.019531 237.476562 L 112.234375 237.476562 L 112.445312 237.472656 L 113.71875 237.472656 L 115.417969 237.464844 L 116.339844 237.464844 L 117.261719 237.460938 L 119.101562 237.453125 L 120.023438 237.453125 L 120.941406 237.449219 L 122.785156 237.441406 L 122.898438 237.441406 L 123.011719 237.4375 L 123.6875 237.4375 L 124.59375 237.433594 L 126.398438 237.421875 L 126.625 237.421875 L 126.851562 237.417969 L 127.304688 237.417969 L 128.207031 237.410156 L 130.015625 237.398438 L 130.226562 237.398438 L 130.4375 237.394531 L 130.859375 237.394531 L 131.703125 237.386719 L 133.386719 237.371094 L 133.597656 237.371094 L 133.808594 237.367188 L 134.230469 237.367188 L 135.074219 237.355469 L 136.761719 237.339844 L 136.875 237.339844 L 136.988281 237.335938 L 137.21875 237.335938 L 137.675781 237.328125 L 138.589844 237.316406 L 138.816406 237.316406 L 139.046875 237.3125 L 139.503906 237.308594 L 140.417969 237.292969 L 140.53125 237.292969 L 140.648438 237.289062 L 140.875 237.289062 L 144.074219 237.234375 L 144.183594 237.234375 L 144.289062 237.230469 L 144.503906 237.226562 L 145.78125 237.203125 L 145.890625 237.199219 L 145.996094 237.199219 L 146.210938 237.195312 L 146.636719 237.183594 L 147.488281 237.164062 L 147.597656 237.164062 L 147.703125 237.160156 L 147.917969 237.15625 L 148.34375 237.144531 L 149.195312 237.125 L 150.902344 237.078125 L 151.113281 237.070312 L 151.320312 237.066406 L 151.738281 237.050781 L 152.578125 237.023438 L 152.679688 237.019531 L 152.785156 237.019531 L 152.996094 237.011719 L 154.25 236.964844 L 154.460938 236.957031 L 154.667969 236.949219 L 155.085938 236.933594 L 155.925781 236.898438 L 157.597656 236.824219 L 157.710938 236.816406 L 157.824219 236.8125 L 158.503906 236.777344 L 159.414062 236.730469 L 159.640625 236.714844 L 159.867188 236.703125 L 160.320312 236.675781 L 161.230469 236.621094 L 161.457031 236.605469 L 161.683594 236.59375 L 163.042969 236.5 L 164.859375 236.355469 L 165.070312 236.339844 L 165.285156 236.320312 L 165.707031 236.28125 L 166.554688 236.203125 L 166.660156 236.195312 L 166.765625 236.183594 L 166.976562 236.164062 L 167.402344 236.121094 L 168.25 236.03125 L 168.671875 235.984375 L 169.097656 235.933594 L 169.941406 235.832031 L 171.636719 235.605469 L 171.753906 235.589844 L 171.867188 235.574219 L 172.097656 235.539062 L 172.554688 235.46875 L 173.472656 235.324219 L 173.589844 235.304688 L 173.703125 235.285156 L 173.933594 235.246094 L 174.390625 235.164062 L 175.308594 234.996094 L 175.425781 234.972656 L 175.539062 234.949219 L 175.769531 234.902344 L 176.226562 234.8125 L 177.148438 234.613281 L 178.984375 234.171875 L 179.097656 234.140625 L 179.207031 234.109375 L 179.433594 234.050781 L 179.882812 233.925781 L 180.785156 233.664062 L 180.898438 233.632812 L 181.238281 233.527344 L 181.6875 233.382812 L 182.589844 233.082031 L 182.703125 233.039062 L 182.8125 233 L 183.492188 232.753906 L 184.390625 232.402344 L 186.195312 231.613281 L 186.40625 231.511719 L 186.613281 231.410156 L 187.035156 231.203125 L 187.875 230.761719 L 187.980469 230.703125 L 188.085938 230.648438 L 188.296875 230.53125 L 188.71875 230.289062 L 189.558594 229.785156 L 189.769531 229.652344 L 189.976562 229.519531 L 190.398438 229.242188 L 191.238281 228.660156 L 192.921875 227.371094 L 193.035156 227.277344 L 193.148438 227.179688 L 193.375 226.988281 L 193.832031 226.59375 L 194.742188 225.753906 L 194.859375 225.644531 L 194.972656 225.53125 L 195.199219 225.308594 L 195.65625 224.847656 L 196.566406 223.875 L 196.683594 223.746094 L 197.023438 223.359375 L 197.480469 222.824219 L 198.390625 221.695312 L 200.214844 219.171875 L 200.320312 219.011719 L 200.429688 218.851562 L 200.640625 218.527344 L 201.066406 217.863281 L 201.917969 216.464844 L 202.128906 216.097656 L 202.34375 215.726562 L 202.769531 214.96875 L 203.621094 213.367188 L 203.832031 212.953125 L 204.046875 212.527344 L 204.46875 211.660156 L 205.320312 209.839844 L 207.023438 205.832031 L 207.140625 205.542969 L 207.253906 205.25 L 207.484375 204.660156 L 207.945312 203.445312 L 208.867188 200.890625 L 208.984375 200.558594 L 209.097656 200.226562 L 209.328125 199.546875 L 209.789062 198.164062 L 210.710938 195.257812 L 210.828125 194.882812 L 210.941406 194.503906 L 211.171875 193.734375 L 211.632812 192.164062 L 212.558594 188.875 L 214.402344 181.6875 L 214.628906 180.75 L 214.855469 179.796875 L 215.308594 177.851562 L 216.210938 173.804688 L 218.023438 165.078125 L 218.136719 164.503906 L 218.25 163.925781 L 218.476562 162.761719 L 218.929688 160.390625 L 219.832031 155.496094 L 221.644531 145.085938 L 221.855469 143.820312 L 222.066406 142.542969 L 222.488281 139.960938 L 223.335938 134.675781 L 225.023438 123.667969 L 228.402344 100.355469 L 228.515625 99.546875 L 228.632812 98.738281 L 228.859375 97.117188 L 229.316406 93.871094 L 230.234375 87.375 L 232.066406 74.5 L 232.292969 72.914062 L 232.523438 71.335938 L 232.980469 68.203125 L 233.898438 62.0625 L 235.726562 50.410156 L 235.835938 49.761719 L 235.941406 49.121094 L 236.15625 47.84375 L 236.582031 45.347656 L 237.4375 40.570312 L 237.546875 39.996094 L 237.652344 39.425781 L 237.867188 38.300781 L 238.292969 36.121094 L 239.148438 32.03125 L 239.253906 31.546875 L 239.363281 31.070312 L 239.574219 30.132812 L 240.003906 28.335938 L 240.109375 27.902344 L 240.21875 27.476562 L 240.429688 26.644531 L 240.859375 25.066406 L 240.964844 24.6875 L 241.074219 24.316406 L 241.285156 23.597656 L 241.714844 22.246094 L 241.820312 21.925781 L 241.925781 21.617188 L 242.140625 21.015625 L 242.570312 19.90625 L 242.671875 19.652344 L 242.777344 19.40625 L 242.988281 18.9375 L 243.09375 18.714844 L 243.199219 18.5 L 243.40625 18.089844 L 243.511719 17.898438 L 243.617188 17.714844 L 243.824219 17.367188 L 243.929688 17.207031 L 244.035156 17.054688 L 244.246094 16.769531 L 244.351562 16.640625 L 244.453125 16.519531 L 244.558594 16.402344 L 244.664062 16.296875 L 244.769531 16.199219 L 244.875 16.109375 L 244.980469 16.027344 L 245.082031 15.953125 L 245.1875 15.886719 L 245.292969 15.828125 L 245.398438 15.777344 L 245.503906 15.738281 L 245.605469 15.703125 L 245.710938 15.675781 L 245.816406 15.65625 L 245.921875 15.648438 L 246.027344 15.644531 L 246.132812 15.652344 L 246.234375 15.667969 L 246.339844 15.6875 L 246.445312 15.71875 L 246.550781 15.757812 L 246.65625 15.804688 L 246.761719 15.855469 L 246.863281 15.917969 L 246.96875 15.988281 L 247.074219 16.066406 L 247.179688 16.152344 L 247.285156 16.25 L 247.390625 16.351562 L 247.597656 16.578125 L 247.703125 16.703125 L 247.808594 16.839844 L 248.015625 17.128906 L 248.121094 17.285156 L 248.226562 17.453125 L 248.4375 17.804688 L 248.542969 17.996094 L 248.644531 18.191406 L 248.855469 18.605469 L 249.273438 19.527344 L 249.386719 19.800781 L 249.503906 20.078125 L 249.730469 20.664062 L 250.183594 21.941406 L 250.296875 22.28125 L 250.410156 22.628906 L 250.640625 23.351562 L 251.09375 24.894531 L 251.207031 25.300781 L 251.320312 25.714844 L 251.546875 26.566406 L 252.003906 28.363281 L 252.914062 32.308594 L 253.027344 32.835938 L 253.140625 33.367188 L 253.367188 34.453125 L 253.820312 36.699219 L 254.730469 41.492188 L 256.550781 52.113281 L 256.761719 53.433594 L 256.972656 54.761719 L 257.398438 57.464844 L 258.246094 63.015625 L 259.945312 74.566406 L 263.339844 98.523438 L 263.453125 99.335938 L 263.570312 100.148438 L 263.796875 101.773438 L 264.257812 105.007812 L 265.179688 111.425781 L 267.019531 123.945312 L 267.132812 124.710938 L 267.246094 125.472656 L 267.476562 126.992188 L 267.9375 129.996094 L 268.855469 135.886719 L 270.695312 147.109375 L 270.808594 147.773438 L 270.921875 148.433594 L 271.148438 149.742188 L 271.601562 152.328125 L 272.503906 157.339844 L 274.308594 166.738281 L 274.421875 167.300781 L 274.535156 167.855469 L 274.761719 168.957031 L 275.210938 171.121094 L 276.113281 175.289062 L 277.921875 183.003906 L 278.132812 183.847656 L 278.339844 184.683594 L 278.761719 186.320312 L 279.605469 189.46875 L 281.289062 195.265625 L 281.5 195.945312 L 281.710938 196.613281 L 282.132812 197.925781 L 282.972656 200.433594 L 284.660156 205.027344 L 284.773438 205.320312 L 284.886719 205.609375 L 285.113281 206.179688 L 285.570312 207.292969 L 286.484375 209.410156 L 286.597656 209.667969 L 286.714844 209.917969 L 286.941406 210.417969 L 287.398438 211.390625 L 288.3125 213.234375 L 288.425781 213.457031 L 288.539062 213.675781 L 288.769531 214.109375 L 289.226562 214.953125 L 290.136719 216.558594 L 291.964844 219.4375 L 292.070312 219.59375 L 292.179688 219.746094 L 292.390625 220.050781 L 292.816406 220.644531 L 293.671875 221.773438 L 293.777344 221.910156 L 293.882812 222.042969 L 294.097656 222.308594 L 294.523438 222.828125 L 295.375 223.8125 L 295.480469 223.929688 L 295.589844 224.046875 L 295.800781 224.277344 L 296.226562 224.726562 L 297.082031 225.585938 L 298.785156 227.125 L 298.890625 227.214844 L 298.996094 227.300781 L 299.203125 227.472656 L 299.621094 227.804688 L 300.457031 228.441406 L 300.5625 228.519531 L 300.667969 228.59375 L 300.875 228.742188 L 301.292969 229.035156 L 302.128906 229.585938 L 302.339844 229.71875 L 302.546875 229.851562 L 302.964844 230.101562 L 303.800781 230.585938 L 305.472656 231.453125 L 305.699219 231.5625 L 305.925781 231.667969 L 306.378906 231.875 L 307.285156 232.269531 L 307.511719 232.363281 L 308.191406 232.632812 L 309.101562 232.96875 L 309.214844 233.011719 L 310.007812 233.285156 L 310.914062 233.574219 L 312.726562 234.09375 L 312.9375 234.148438 L 313.152344 234.203125 L 313.574219 234.3125 L 314.421875 234.515625 L 315.265625 234.703125 L 316.113281 234.878906 L 316.21875 234.902344 L 316.324219 234.921875 L 316.535156 234.964844 L 316.957031 235.046875 L 317.804688 235.199219 L 319.496094 235.476562 L 319.613281 235.496094 L 319.726562 235.511719 L 319.957031 235.546875 L 320.414062 235.613281 L 321.332031 235.738281 L 321.445312 235.753906 L 321.5625 235.769531 L 321.789062 235.800781 L 322.25 235.855469 L 323.167969 235.964844 L 323.28125 235.980469 L 323.394531 235.992188 L 323.625 236.015625 L 324.082031 236.066406 L 325 236.160156 L 326.835938 236.332031 L 326.941406 236.339844 L 327.050781 236.347656 L 327.265625 236.367188 L 327.691406 236.402344 L 328.546875 236.46875 L 328.65625 236.476562 L 328.761719 236.484375 L 329.40625 236.53125 L 330.261719 236.589844 L 330.367188 236.597656 L 330.476562 236.601562 L 330.691406 236.617188 L 331.117188 236.644531 L 331.976562 236.695312 L 333.6875 236.789062 L 333.898438 236.796875 L 334.109375 236.808594 L 334.527344 236.828125 L 335.367188 236.867188 L 335.472656 236.871094 L 335.578125 236.878906 L 335.789062 236.886719 L 336.207031 236.90625 L 337.046875 236.9375 L 337.46875 236.953125 L 337.886719 236.972656 L 340.40625 237.054688 L 340.632812 237.0625 L 340.863281 237.070312 L 341.316406 237.082031 L 342.226562 237.109375 L 342.34375 237.113281 L 342.457031 237.113281 L 342.683594 237.121094 L 343.140625 237.132812 L 344.050781 237.15625 L 344.164062 237.15625 L 344.277344 237.160156 L 344.503906 237.164062 L 344.960938 237.175781 L 345.871094 237.195312 L 347.695312 237.230469 L 347.800781 237.234375 L 347.90625 237.234375 L 348.117188 237.238281 L 349.394531 237.261719 L 351.09375 237.289062 L 351.304688 237.289062 L 351.519531 237.292969 L 351.945312 237.300781 L 352.792969 237.3125 L 354.496094 237.332031 L 354.726562 237.332031 L 354.957031 237.335938 L 355.414062 237.339844 L 356.335938 237.351562 L 356.453125 237.351562 L 356.566406 237.355469 L 356.796875 237.355469 L 358.179688 237.367188 L 358.292969 237.371094 L 358.410156 237.371094 L 358.640625 237.375 L 359.101562 237.378906 L 360.023438 237.382812 L 361.863281 237.398438 L 362.089844 237.398438 L 362.316406 237.402344 L 362.769531 237.40625 L 363.671875 237.410156 L 365.484375 237.421875 L 365.707031 237.421875 L 365.933594 237.425781 L 366.386719 237.425781 L 367.292969 237.429688 L 369.101562 237.441406 L 369.523438 237.441406 L 369.945312 237.445312 L 370.789062 237.445312 L 372.476562 237.453125 L 372.898438 237.453125 L 373.320312 237.457031 L 374.164062 237.460938 L 375.851562 237.464844 L 376.308594 237.464844 L 376.765625 237.46875 L 377.679688 237.46875 L 379.511719 237.472656 L 379.625 237.476562 L 380.425781 237.476562 L 381.339844 237.480469 L 383.167969 237.480469 L 383.277344 237.484375 L 384.878906 237.484375 L 386.585938 237.488281 L 387.441406 237.488281 L 388.292969 237.492188 L 390.421875 237.492188 L 390.839844 237.496094 L 393.769531 237.496094 L 394.1875 237.5 L 397.609375 237.5 L 398.515625 237.503906 L 402.152344 237.503906 L 403.96875 237.507812 L 409.054688 237.507812 L 410.75 237.511719 L 418.320312 237.511719 " transform="matrix(1,0,0,1,-66,-8)"/>
<path style="fill:none;stroke-width:1.6;stroke-linecap:square;stroke-linejoin:miter;stroke:rgb(56.016541%,69.155884%,19.488525%);stroke-opacity:1;stroke-miterlimit:3.25;" d="M 73.679688 237.519531 L 128.207031 237.519531 L 130.015625 237.515625 L 138.816406 237.515625 L 139.046875 237.511719 L 144.074219 237.511719 L 144.183594 237.507812 L 146.636719 237.507812 L 147.488281 237.503906 L 149.625 237.503906 L 150.050781 237.5 L 151.738281 237.5 L 152.578125 237.496094 L 153.414062 237.496094 L 154.25 237.492188 L 154.667969 237.492188 L 155.085938 237.488281 L 156.132812 237.488281 L 156.34375 237.484375 L 156.761719 237.484375 L 157.597656 237.480469 L 158.050781 237.480469 L 158.503906 237.476562 L 159.414062 237.472656 L 159.640625 237.472656 L 159.867188 237.46875 L 160.320312 237.46875 L 161.230469 237.460938 L 161.683594 237.460938 L 163.042969 237.449219 L 163.273438 237.449219 L 163.5 237.445312 L 163.953125 237.445312 L 164.859375 237.4375 L 164.964844 237.433594 L 165.285156 237.433594 L 165.707031 237.425781 L 166.554688 237.417969 L 166.765625 237.417969 L 166.976562 237.414062 L 167.402344 237.410156 L 168.25 237.398438 L 168.355469 237.398438 L 168.460938 237.394531 L 168.671875 237.390625 L 169.097656 237.386719 L 169.941406 237.371094 L 170.15625 237.371094 L 170.789062 237.359375 L 171.636719 237.34375 L 171.753906 237.339844 L 171.867188 237.335938 L 172.097656 237.332031 L 172.554688 237.324219 L 173.472656 237.300781 L 173.589844 237.296875 L 173.703125 237.296875 L 173.933594 237.289062 L 174.390625 237.277344 L 175.308594 237.25 L 175.425781 237.246094 L 175.539062 237.242188 L 175.769531 237.234375 L 176.226562 237.21875 L 177.148438 237.1875 L 177.375 237.179688 L 177.605469 237.167969 L 178.066406 237.148438 L 178.984375 237.109375 L 179.097656 237.101562 L 179.207031 237.097656 L 179.433594 237.085938 L 179.882812 237.0625 L 180.785156 237.011719 L 180.898438 237.003906 L 181.011719 237 L 181.238281 236.984375 L 181.6875 236.957031 L 182.589844 236.890625 L 182.703125 236.882812 L 182.8125 236.875 L 183.039062 236.859375 L 183.492188 236.820312 L 184.390625 236.742188 L 184.503906 236.730469 L 184.617188 236.722656 L 184.84375 236.699219 L 185.292969 236.65625 L 186.195312 236.554688 L 186.40625 236.53125 L 186.613281 236.507812 L 187.035156 236.453125 L 187.875 236.339844 L 188.085938 236.308594 L 188.296875 236.28125 L 188.71875 236.214844 L 189.558594 236.074219 L 189.664062 236.058594 L 189.769531 236.039062 L 189.976562 236 L 190.398438 235.921875 L 191.238281 235.75 L 191.660156 235.65625 L 192.078125 235.558594 L 192.921875 235.347656 L 193.035156 235.320312 L 193.375 235.226562 L 193.832031 235.09375 L 194.742188 234.808594 L 194.859375 234.773438 L 195.199219 234.65625 L 195.65625 234.492188 L 196.566406 234.136719 L 196.683594 234.089844 L 196.796875 234.039062 L 197.023438 233.941406 L 197.480469 233.738281 L 198.390625 233.292969 L 198.503906 233.234375 L 198.621094 233.175781 L 198.847656 233.050781 L 199.304688 232.796875 L 200.214844 232.242188 L 200.320312 232.175781 L 200.429688 232.105469 L 200.640625 231.964844 L 201.066406 231.667969 L 201.917969 231.03125 L 202.023438 230.949219 L 202.128906 230.863281 L 202.34375 230.691406 L 202.769531 230.328125 L 203.621094 229.550781 L 203.726562 229.449219 L 203.832031 229.34375 L 204.046875 229.132812 L 204.46875 228.691406 L 205.320312 227.742188 L 205.429688 227.617188 L 205.535156 227.492188 L 205.746094 227.234375 L 206.171875 226.699219 L 207.023438 225.546875 L 207.140625 225.382812 L 207.253906 225.214844 L 207.484375 224.875 L 207.945312 224.164062 L 208.867188 222.636719 L 208.984375 222.433594 L 209.097656 222.230469 L 209.328125 221.8125 L 209.789062 220.945312 L 210.710938 219.074219 L 210.828125 218.828125 L 210.941406 218.578125 L 211.171875 218.070312 L 211.632812 217.011719 L 212.558594 214.742188 L 212.671875 214.445312 L 212.789062 214.140625 L 213.019531 213.523438 L 213.480469 212.25 L 214.402344 209.511719 L 214.515625 209.160156 L 214.628906 208.804688 L 214.855469 208.078125 L 215.308594 206.578125 L 216.210938 203.375 L 216.324219 202.957031 L 216.4375 202.535156 L 216.664062 201.671875 L 217.117188 199.898438 L 218.023438 196.125 L 218.136719 195.632812 L 218.25 195.132812 L 218.476562 194.125 L 218.929688 192.046875 L 219.832031 187.648438 L 221.644531 177.859375 L 221.75 177.246094 L 221.855469 176.628906 L 222.066406 175.378906 L 222.488281 172.828125 L 223.335938 167.5 L 225.023438 155.964844 L 225.128906 155.207031 L 225.234375 154.441406 L 225.445312 152.902344 L 225.867188 149.773438 L 226.710938 143.3125 L 228.402344 129.671875 L 228.515625 128.71875 L 228.632812 127.757812 L 228.859375 125.828125 L 229.316406 121.933594 L 230.234375 114.003906 L 232.066406 97.785156 L 232.179688 96.761719 L 232.292969 95.742188 L 232.523438 93.695312 L 232.980469 89.613281 L 233.898438 81.488281 L 235.726562 65.695312 L 235.835938 64.800781 L 235.941406 63.914062 L 236.15625 62.148438 L 236.582031 58.671875 L 237.4375 51.960938 L 237.546875 51.148438 L 237.652344 50.34375 L 237.867188 48.75 L 238.292969 45.636719 L 239.148438 39.765625 L 239.253906 39.066406 L 239.363281 38.375 L 239.574219 37.019531 L 240.003906 34.40625 L 240.109375 33.777344 L 240.21875 33.15625 L 240.429688 31.941406 L 240.859375 29.625 L 240.964844 29.070312 L 241.074219 28.527344 L 241.285156 27.464844 L 241.714844 25.472656 L 241.820312 25 L 241.925781 24.539062 L 242.140625 23.652344 L 242.570312 22.003906 L 242.671875 21.625 L 242.777344 21.261719 L 242.988281 20.5625 L 243.09375 20.230469 L 243.199219 19.910156 L 243.40625 19.304688 L 243.511719 19.015625 L 243.617188 18.738281 L 243.824219 18.222656 L 243.929688 17.984375 L 244.035156 17.753906 L 244.246094 17.328125 L 244.351562 17.136719 L 244.453125 16.953125 L 244.558594 16.78125 L 244.664062 16.621094 L 244.769531 16.476562 L 244.875 16.339844 L 244.980469 16.21875 L 245.082031 16.105469 L 245.1875 16.007812 L 245.292969 15.921875 L 245.398438 15.84375 L 245.503906 15.78125 L 245.605469 15.730469 L 245.710938 15.691406 L 245.816406 15.664062 L 245.921875 15.648438 L 246.027344 15.644531 L 246.132812 15.65625 L 246.234375 15.675781 L 246.339844 15.710938 L 246.445312 15.753906 L 246.550781 15.8125 L 246.65625 15.882812 L 246.761719 15.960938 L 246.863281 16.054688 L 246.96875 16.160156 L 247.074219 16.277344 L 247.179688 16.40625 L 247.285156 16.550781 L 247.390625 16.703125 L 247.597656 17.042969 L 247.703125 17.230469 L 247.808594 17.433594 L 248.015625 17.867188 L 248.121094 18.101562 L 248.226562 18.351562 L 248.4375 18.878906 L 248.542969 19.160156 L 248.644531 19.453125 L 248.855469 20.070312 L 249.273438 21.445312 L 249.386719 21.847656 L 249.503906 22.265625 L 249.730469 23.132812 L 250.183594 25.023438 L 250.296875 25.523438 L 250.410156 26.039062 L 250.640625 27.105469 L 251.09375 29.375 L 251.207031 29.972656 L 251.320312 30.578125 L 251.546875 31.824219 L 252.003906 34.445312 L 252.914062 40.167969 L 253.027344 40.925781 L 253.140625 41.691406 L 253.367188 43.25 L 253.820312 46.464844 L 254.730469 53.265625 L 256.550781 68.035156 L 256.65625 68.933594 L 256.972656 71.652344 L 257.398438 75.316406 L 258.246094 82.757812 L 259.945312 97.867188 L 260.050781 98.816406 L 260.367188 101.652344 L 260.792969 105.425781 L 261.640625 112.910156 L 263.339844 127.503906 L 263.453125 128.46875 L 263.570312 129.429688 L 263.796875 131.339844 L 264.257812 135.113281 L 265.179688 142.460938 L 267.019531 156.261719 L 267.246094 157.894531 L 267.476562 159.507812 L 267.9375 162.667969 L 268.855469 168.734375 L 270.695312 179.808594 L 270.808594 180.441406 L 270.921875 181.070312 L 271.148438 182.3125 L 271.601562 184.730469 L 272.503906 189.320312 L 272.617188 189.871094 L 272.730469 190.417969 L 272.953125 191.496094 L 273.40625 193.589844 L 274.308594 197.542969 L 274.421875 198.015625 L 274.535156 198.484375 L 274.761719 199.40625 L 275.210938 201.195312 L 276.113281 204.5625 L 277.921875 210.496094 L 278.027344 210.8125 L 278.132812 211.121094 L 278.339844 211.738281 L 278.761719 212.925781 L 279.605469 215.15625 L 279.816406 215.6875 L 280.027344 216.203125 L 280.449219 217.203125 L 281.289062 219.078125 L 281.5 219.523438 L 281.710938 219.957031 L 282.132812 220.792969 L 282.972656 222.359375 L 283.183594 222.726562 L 283.394531 223.089844 L 283.816406 223.785156 L 284.660156 225.085938 L 284.773438 225.253906 L 284.886719 225.417969 L 285.113281 225.742188 L 285.570312 226.363281 L 286.484375 227.515625 L 286.597656 227.652344 L 286.714844 227.785156 L 286.941406 228.046875 L 287.398438 228.550781 L 288.3125 229.484375 L 288.539062 229.703125 L 288.769531 229.914062 L 289.226562 230.324219 L 290.136719 231.078125 L 290.253906 231.164062 L 290.367188 231.253906 L 290.59375 231.421875 L 291.050781 231.753906 L 291.964844 232.359375 L 292.070312 232.425781 L 292.179688 232.488281 L 292.390625 232.617188 L 292.816406 232.867188 L 293.671875 233.324219 L 293.882812 233.433594 L 294.097656 233.539062 L 294.523438 233.738281 L 295.375 234.113281 L 295.480469 234.15625 L 295.589844 234.199219 L 295.800781 234.285156 L 296.226562 234.449219 L 297.082031 234.75 L 297.1875 234.789062 L 297.292969 234.824219 L 297.507812 234.890625 L 297.933594 235.023438 L 298.785156 235.269531 L 298.890625 235.296875 L 298.996094 235.328125 L 299.203125 235.382812 L 299.621094 235.488281 L 300.457031 235.683594 L 300.667969 235.730469 L 300.875 235.773438 L 301.292969 235.859375 L 302.128906 236.019531 L 302.339844 236.058594 L 302.546875 236.09375 L 302.964844 236.164062 L 303.800781 236.292969 L 303.90625 236.308594 L 304.007812 236.324219 L 304.21875 236.355469 L 304.636719 236.410156 L 305.472656 236.515625 L 305.585938 236.53125 L 305.699219 236.542969 L 305.925781 236.570312 L 306.378906 236.621094 L 307.285156 236.710938 L 307.511719 236.734375 L 308.191406 236.792969 L 309.101562 236.867188 L 309.214844 236.878906 L 310.007812 236.933594 L 310.914062 236.992188 L 311.140625 237.007812 L 311.367188 237.019531 L 311.820312 237.046875 L 312.726562 237.09375 L 312.832031 237.097656 L 312.9375 237.105469 L 313.152344 237.113281 L 313.574219 237.132812 L 314.421875 237.171875 L 315.265625 237.203125 L 316.113281 237.230469 L 316.535156 237.246094 L 316.957031 237.257812 L 317.804688 237.28125 L 318.015625 237.289062 L 318.226562 237.292969 L 318.652344 237.304688 L 319.496094 237.324219 L 319.613281 237.328125 L 319.726562 237.328125 L 319.957031 237.332031 L 320.414062 237.34375 L 321.332031 237.359375 L 321.445312 237.363281 L 321.5625 237.363281 L 321.789062 237.367188 L 322.25 237.375 L 323.167969 237.390625 L 323.28125 237.390625 L 323.394531 237.394531 L 323.625 237.394531 L 324.082031 237.402344 L 325 237.414062 L 325.117188 237.414062 L 325.230469 237.417969 L 325.460938 237.417969 L 325.917969 237.421875 L 326.835938 237.433594 L 327.050781 237.433594 L 327.265625 237.4375 L 327.691406 237.441406 L 328.546875 237.449219 L 328.976562 237.449219 L 329.40625 237.453125 L 330.261719 237.460938 L 330.691406 237.460938 L 331.117188 237.464844 L 331.976562 237.46875 L 332.082031 237.46875 L 332.1875 237.472656 L 332.832031 237.472656 L 333.6875 237.476562 L 333.792969 237.476562 L 333.898438 237.480469 L 334.527344 237.480469 L 335.367188 237.484375 L 335.789062 237.484375 L 336.207031 237.488281 L 337.046875 237.492188 L 337.886719 237.492188 L 338.726562 237.496094 L 339.566406 237.496094 L 340.40625 237.5 L 341.316406 237.5 L 342.226562 237.503906 L 344.503906 237.503906 L 344.960938 237.507812 L 347.800781 237.507812 L 347.90625 237.511719 L 352.792969 237.511719 L 354.496094 237.515625 L 363.671875 237.515625 L 363.785156 237.519531 L 418.320312 237.519531 " transform="matrix(1,0,0,1,-66,-8)"/>
<path style="fill:none;stroke-width:1.6;stroke-linecap:square;stroke-linejoin:miter;stroke:rgb(92.251587%,38.562012%,20.918274%);stroke-opacity:1;stroke-miterlimit:3.25;" d="M 73.679688 237.519531 L 173.933594 237.519531 L 174.390625 237.515625 L 178.984375 237.515625 L 179.097656 237.511719 L 181.238281 237.511719 L 181.6875 237.507812 L 183.039062 237.507812 L 183.492188 237.503906 L 184.390625 237.503906 L 184.503906 237.5 L 185.40625 237.5 L 185.519531 237.496094 L 186.195312 237.496094 L 186.300781 237.492188 L 186.613281 237.492188 L 187.035156 237.488281 L 187.457031 237.488281 L 187.875 237.484375 L 188.085938 237.484375 L 188.296875 237.480469 L 188.71875 237.476562 L 189.558594 237.46875 L 189.769531 237.46875 L 189.976562 237.464844 L 190.398438 237.460938 L 190.503906 237.460938 L 190.609375 237.457031 L 190.820312 237.457031 L 191.238281 237.449219 L 191.34375 237.449219 L 191.449219 237.445312 L 191.660156 237.441406 L 192.078125 237.4375 L 192.183594 237.433594 L 192.289062 237.433594 L 192.921875 237.421875 L 193.148438 237.414062 L 193.375 237.410156 L 193.832031 237.402344 L 194.058594 237.394531 L 194.289062 237.390625 L 194.742188 237.375 L 194.859375 237.371094 L 194.972656 237.371094 L 195.199219 237.363281 L 195.65625 237.347656 L 195.882812 237.339844 L 196.113281 237.332031 L 196.566406 237.3125 L 196.683594 237.308594 L 196.796875 237.300781 L 197.023438 237.292969 L 197.480469 237.269531 L 197.59375 237.261719 L 197.707031 237.257812 L 197.933594 237.246094 L 198.390625 237.21875 L 198.503906 237.210938 L 198.621094 237.203125 L 198.847656 237.1875 L 199.304688 237.15625 L 199.53125 237.140625 L 199.757812 237.121094 L 200.214844 237.082031 L 200.320312 237.074219 L 200.429688 237.066406 L 200.640625 237.042969 L 201.066406 237 L 201.171875 236.992188 L 201.277344 236.980469 L 201.492188 236.953125 L 201.917969 236.90625 L 202.023438 236.890625 L 202.128906 236.878906 L 202.34375 236.847656 L 202.769531 236.789062 L 203.621094 236.652344 L 203.832031 236.613281 L 204.046875 236.574219 L 204.46875 236.492188 L 204.578125 236.46875 L 204.894531 236.398438 L 205.320312 236.300781 L 205.429688 236.273438 L 205.746094 236.191406 L 206.171875 236.074219 L 207.023438 235.808594 L 207.140625 235.769531 L 207.253906 235.730469 L 207.484375 235.648438 L 207.945312 235.46875 L 208.0625 235.421875 L 208.175781 235.375 L 208.40625 235.273438 L 208.867188 235.0625 L 208.984375 235.007812 L 209.097656 234.949219 L 209.328125 234.832031 L 209.789062 234.578125 L 210.710938 234.007812 L 210.828125 233.929688 L 210.941406 233.847656 L 211.171875 233.679688 L 211.632812 233.328125 L 211.867188 233.140625 L 212.097656 232.945312 L 212.558594 232.527344 L 212.671875 232.417969 L 212.789062 232.304688 L 213.019531 232.074219 L 213.480469 231.582031 L 214.402344 230.472656 L 214.515625 230.324219 L 214.628906 230.171875 L 214.855469 229.859375 L 215.308594 229.199219 L 215.421875 229.023438 L 215.53125 228.847656 L 215.757812 228.484375 L 216.210938 227.714844 L 216.324219 227.515625 L 216.4375 227.308594 L 216.664062 226.886719 L 217.117188 225.992188 L 218.023438 224.003906 L 218.136719 223.734375 L 218.25 223.460938 L 218.476562 222.898438 L 218.929688 221.710938 L 219.042969 221.402344 L 219.15625 221.085938 L 219.382812 220.441406 L 219.832031 219.082031 L 219.945312 218.726562 L 220.058594 218.367188 L 220.285156 217.628906 L 220.738281 216.078125 L 221.644531 212.664062 L 221.75 212.238281 L 221.855469 211.804688 L 222.066406 210.921875 L 222.488281 209.074219 L 223.335938 205.0625 L 223.441406 204.53125 L 223.546875 203.992188 L 223.757812 202.890625 L 224.179688 200.605469 L 225.023438 195.671875 L 225.128906 195.019531 L 225.234375 194.363281 L 225.445312 193.019531 L 225.867188 190.242188 L 226.710938 184.300781 L 228.402344 170.847656 L 228.515625 169.859375 L 228.632812 168.863281 L 228.859375 166.839844 L 229.316406 162.683594 L 230.234375 153.933594 L 232.066406 134.851562 L 235.726562 92.617188 L 235.835938 91.359375 L 235.941406 90.105469 L 236.15625 87.597656 L 236.582031 82.609375 L 237.4375 72.808594 L 237.546875 71.601562 L 237.652344 70.402344 L 237.867188 68.023438 L 238.292969 63.34375 L 239.148438 54.371094 L 239.253906 53.289062 L 239.363281 52.21875 L 239.574219 50.109375 L 240.003906 46.023438 L 240.109375 45.03125 L 240.21875 44.054688 L 240.429688 42.132812 L 240.859375 38.449219 L 240.964844 37.566406 L 241.074219 36.695312 L 241.285156 34.996094 L 241.714844 31.78125 L 241.820312 31.019531 L 241.925781 30.269531 L 242.140625 28.824219 L 242.570312 26.140625 L 242.671875 25.523438 L 242.777344 24.925781 L 242.988281 23.78125 L 243.09375 23.238281 L 243.199219 22.707031 L 243.40625 21.707031 L 243.511719 21.234375 L 243.617188 20.777344 L 243.824219 19.925781 L 243.929688 19.527344 L 244.035156 19.148438 L 244.246094 18.445312 L 244.351562 18.121094 L 244.453125 17.820312 L 244.558594 17.535156 L 244.664062 17.273438 L 244.769531 17.027344 L 244.875 16.804688 L 244.980469 16.597656 L 245.082031 16.414062 L 245.1875 16.246094 L 245.292969 16.101562 L 245.398438 15.976562 L 245.503906 15.871094 L 245.605469 15.785156 L 245.710938 15.722656 L 245.816406 15.675781 L 245.921875 15.652344 L 246.027344 15.644531 L 246.132812 15.660156 L 246.234375 15.695312 L 246.339844 15.753906 L 246.445312 15.828125 L 246.550781 15.921875 L 246.65625 16.039062 L 246.761719 16.171875 L 246.863281 16.328125 L 246.96875 16.503906 L 247.074219 16.699219 L 247.179688 16.914062 L 247.285156 17.148438 L 247.390625 17.402344 L 247.597656 17.96875 L 247.703125 18.28125 L 247.808594 18.613281 L 248.015625 19.335938 L 248.121094 19.726562 L 248.226562 20.132812 L 248.4375 21.007812 L 248.542969 21.472656 L 248.644531 21.953125 L 248.855469 22.972656 L 249.273438 25.226562 L 249.386719 25.886719 L 249.503906 26.566406 L 249.730469 27.984375 L 250.183594 31.050781 L 250.296875 31.867188 L 250.410156 32.695312 L 250.640625 34.414062 L 251.09375 38.050781 L 251.207031 39.003906 L 251.320312 39.96875 L 251.546875 41.949219 L 252.003906 46.085938 L 252.914062 54.988281 L 253.027344 56.15625 L 253.140625 57.332031 L 253.367188 59.714844 L 253.820312 64.59375 L 254.730469 74.726562 L 256.550781 95.894531 L 256.972656 100.894531 L 257.398438 105.890625 L 258.246094 115.800781 L 259.945312 134.953125 L 260.050781 136.109375 L 260.15625 137.261719 L 260.367188 139.542969 L 260.792969 144.035156 L 261.640625 152.699219 L 263.339844 168.597656 L 263.453125 169.601562 L 263.570312 170.597656 L 263.796875 172.554688 L 264.257812 176.359375 L 265.179688 183.496094 L 265.292969 184.34375 L 265.410156 185.183594 L 265.636719 186.832031 L 266.097656 190.015625 L 267.019531 195.925781 L 267.132812 196.621094 L 267.246094 197.308594 L 267.476562 198.65625 L 267.9375 201.246094 L 268.855469 206.011719 L 268.972656 206.570312 L 269.085938 207.117188 L 269.316406 208.195312 L 269.777344 210.25 L 270.695312 214.003906 L 270.808594 214.433594 L 270.921875 214.855469 L 271.148438 215.679688 L 271.601562 217.25 L 271.710938 217.628906 L 271.824219 218 L 272.050781 218.722656 L 272.503906 220.101562 L 272.617188 220.433594 L 272.730469 220.757812 L 272.953125 221.390625 L 273.40625 222.59375 L 274.308594 224.765625 L 274.421875 225.015625 L 274.535156 225.261719 L 274.761719 225.742188 L 275.210938 226.648438 L 275.324219 226.867188 L 275.4375 227.078125 L 275.664062 227.492188 L 276.113281 228.277344 L 276.226562 228.464844 L 276.339844 228.648438 L 276.566406 229.003906 L 277.019531 229.675781 L 277.921875 230.878906 L 278.027344 231.007812 L 278.132812 231.132812 L 278.339844 231.378906 L 278.761719 231.84375 L 278.867188 231.957031 L 278.972656 232.066406 L 279.183594 232.277344 L 279.605469 232.675781 L 279.710938 232.773438 L 279.816406 232.867188 L 280.027344 233.046875 L 280.449219 233.394531 L 281.289062 234.007812 L 281.5 234.148438 L 281.710938 234.28125 L 282.132812 234.535156 L 282.238281 234.59375 L 282.34375 234.65625 L 282.554688 234.769531 L 282.972656 234.984375 L 283.078125 235.039062 L 283.183594 235.089844 L 283.394531 235.1875 L 283.816406 235.371094 L 284.660156 235.699219 L 284.773438 235.738281 L 284.886719 235.78125 L 285.113281 235.855469 L 285.570312 236 L 285.6875 236.035156 L 285.800781 236.066406 L 286.027344 236.132812 L 286.484375 236.253906 L 286.597656 236.28125 L 286.714844 236.308594 L 286.941406 236.363281 L 287.398438 236.464844 L 287.625 236.511719 L 287.855469 236.554688 L 288.3125 236.640625 L 288.539062 236.679688 L 288.769531 236.71875 L 289.226562 236.789062 L 289.453125 236.820312 L 289.683594 236.851562 L 290.136719 236.910156 L 290.253906 236.925781 L 290.367188 236.9375 L 290.59375 236.964844 L 291.050781 237.015625 L 291.164062 237.027344 L 291.28125 237.035156 L 291.507812 237.058594 L 291.964844 237.097656 L 292.070312 237.109375 L 292.179688 237.117188 L 292.390625 237.132812 L 292.816406 237.167969 L 292.925781 237.171875 L 293.242188 237.195312 L 293.671875 237.222656 L 293.777344 237.230469 L 293.882812 237.234375 L 294.097656 237.246094 L 294.523438 237.269531 L 295.375 237.308594 L 295.480469 237.3125 L 295.589844 237.320312 L 295.800781 237.328125 L 296.226562 237.34375 L 296.335938 237.347656 L 296.441406 237.351562 L 296.65625 237.359375 L 297.082031 237.371094 L 297.292969 237.378906 L 297.507812 237.382812 L 297.933594 237.394531 L 298.785156 237.414062 L 298.890625 237.417969 L 298.996094 237.417969 L 299.203125 237.421875 L 299.621094 237.429688 L 299.726562 237.433594 L 299.832031 237.433594 L 300.039062 237.4375 L 300.457031 237.445312 L 300.5625 237.445312 L 300.667969 237.449219 L 300.875 237.449219 L 301.292969 237.457031 L 302.128906 237.464844 L 302.234375 237.46875 L 302.546875 237.46875 L 302.964844 237.476562 L 303.382812 237.476562 L 303.800781 237.480469 L 303.90625 237.484375 L 304.21875 237.484375 L 304.636719 237.488281 L 305.472656 237.492188 L 305.699219 237.492188 L 305.925781 237.496094 L 306.492188 237.496094 L 306.605469 237.5 L 307.511719 237.5 L 307.738281 237.503906 L 308.648438 237.503906 L 309.101562 237.507812 L 310.234375 237.507812 L 310.460938 237.511719 L 312.832031 237.511719 L 312.9375 237.515625 L 317.910156 237.515625 L 318.015625 237.519531 L 418.320312 237.519531 " transform="matrix(1,0,0,1,-66,-8)"/>
</g>
<path style="fill:none;stroke-width:1.6;stroke-linecap:square;stroke-linejoin:miter;stroke:rgb(52.84729%,47.061157%,70.133972%);stroke-opacity:1;stroke-miterlimit:3.25;" d="M 73.679688 215.332031 L 418.320312 215.332031 " transform="matrix(1,0,0,1,-66,-8)"/>
<path style="fill:none;stroke-width:0.2;stroke-linecap:butt;stroke-linejoin:miter;stroke:rgb(39.99939%,39.99939%,39.99939%);stroke-opacity:1;stroke-miterlimit:3.25;" d="M 68.757812 237.519531 L 68.757812 235.121094 " transform="matrix(1,0,0,1,-66,-8)"/>
<path style="fill:none;stroke-width:0.2;stroke-linecap:butt;stroke-linejoin:miter;stroke:rgb(39.99939%,39.99939%,39.99939%);stroke-opacity:1;stroke-miterlimit:3.25;" d="M 78.601562 237.519531 L 78.601562 235.121094 " transform="matrix(1,0,0,1,-66,-8)"/>
<path style="fill:none;stroke-width:0.2;stroke-linecap:butt;stroke-linejoin:miter;stroke:rgb(39.99939%,39.99939%,39.99939%);stroke-opacity:1;stroke-miterlimit:3.25;" d="M 88.449219 237.519531 L 88.449219 235.121094 " transform="matrix(1,0,0,1,-66,-8)"/>
<path style="fill:none;stroke-width:0.2;stroke-linecap:butt;stroke-linejoin:miter;stroke:rgb(39.99939%,39.99939%,39.99939%);stroke-opacity:1;stroke-miterlimit:3.25;" d="M 98.296875 237.519531 L 98.296875 233.519531 " transform="matrix(1,0,0,1,-66,-8)"/>
<g style="fill:rgb(0%,0%,0%);fill-opacity:1;">
  <use xlink:href="#glyph0-1" x="26.690887" y="242.12"/>
</g>
<g style="fill:rgb(0%,0%,0%);fill-opacity:1;">
  <use xlink:href="#glyph1-1" x="32.435887" y="242.12"/>
</g>
<path style="fill:none;stroke-width:0.2;stroke-linecap:butt;stroke-linejoin:miter;stroke:rgb(39.99939%,39.99939%,39.99939%);stroke-opacity:1;stroke-miterlimit:3.25;" d="M 108.144531 237.519531 L 108.144531 235.121094 " transform="matrix(1,0,0,1,-66,-8)"/>
<path style="fill:none;stroke-width:0.2;stroke-linecap:butt;stroke-linejoin:miter;stroke:rgb(39.99939%,39.99939%,39.99939%);stroke-opacity:1;stroke-miterlimit:3.25;" d="M 117.992188 237.519531 L 117.992188 235.121094 " transform="matrix(1,0,0,1,-66,-8)"/>
<path style="fill:none;stroke-width:0.2;stroke-linecap:butt;stroke-linejoin:miter;stroke:rgb(39.99939%,39.99939%,39.99939%);stroke-opacity:1;stroke-miterlimit:3.25;" d="M 127.835938 237.519531 L 127.835938 235.121094 " transform="matrix(1,0,0,1,-66,-8)"/>
<path style="fill:none;stroke-width:0.2;stroke-linecap:butt;stroke-linejoin:miter;stroke:rgb(39.99939%,39.99939%,39.99939%);stroke-opacity:1;stroke-miterlimit:3.25;" d="M 137.683594 237.519531 L 137.683594 235.121094 " transform="matrix(1,0,0,1,-66,-8)"/>
<path style="fill:none;stroke-width:0.2;stroke-linecap:butt;stroke-linejoin:miter;stroke:rgb(39.99939%,39.99939%,39.99939%);stroke-opacity:1;stroke-miterlimit:3.25;" d="M 147.53125 237.519531 L 147.53125 233.519531 " transform="matrix(1,0,0,1,-66,-8)"/>
<g style="fill:rgb(0%,0%,0%);fill-opacity:1;">
  <use xlink:href="#glyph0-1" x="75.925175" y="242.12"/>
</g>
<g style="fill:rgb(0%,0%,0%);fill-opacity:1;">
  <use xlink:href="#glyph1-2" x="81.670175" y="242.12"/>
</g>
<path style="fill:none;stroke-width:0.2;stroke-linecap:butt;stroke-linejoin:miter;stroke:rgb(39.99939%,39.99939%,39.99939%);stroke-opacity:1;stroke-miterlimit:3.25;" d="M 157.378906 237.519531 L 157.378906 235.121094 " transform="matrix(1,0,0,1,-66,-8)"/>
<path style="fill:none;stroke-width:0.2;stroke-linecap:butt;stroke-linejoin:miter;stroke:rgb(39.99939%,39.99939%,39.99939%);stroke-opacity:1;stroke-miterlimit:3.25;" d="M 167.226562 237.519531 L 167.226562 235.121094 " transform="matrix(1,0,0,1,-66,-8)"/>
<path style="fill:none;stroke-width:0.2;stroke-linecap:butt;stroke-linejoin:miter;stroke:rgb(39.99939%,39.99939%,39.99939%);stroke-opacity:1;stroke-miterlimit:3.25;" d="M 177.070312 237.519531 L 177.070312 235.121094 " transform="matrix(1,0,0,1,-66,-8)"/>
<path style="fill:none;stroke-width:0.2;stroke-linecap:butt;stroke-linejoin:miter;stroke:rgb(39.99939%,39.99939%,39.99939%);stroke-opacity:1;stroke-miterlimit:3.25;" d="M 186.917969 237.519531 L 186.917969 235.121094 " transform="matrix(1,0,0,1,-66,-8)"/>
<path style="fill:none;stroke-width:0.2;stroke-linecap:butt;stroke-linejoin:miter;stroke:rgb(39.99939%,39.99939%,39.99939%);stroke-opacity:1;stroke-miterlimit:3.25;" d="M 196.765625 237.519531 L 196.765625 233.519531 " transform="matrix(1,0,0,1,-66,-8)"/>
<g style="fill:rgb(0%,0%,0%);fill-opacity:1;">
  <use xlink:href="#glyph0-1" x="125.159462" y="242.12"/>
</g>
<g style="fill:rgb(0%,0%,0%);fill-opacity:1;">
  <use xlink:href="#glyph1-3" x="130.904462" y="242.12"/>
</g>
<path style="fill:none;stroke-width:0.2;stroke-linecap:butt;stroke-linejoin:miter;stroke:rgb(39.99939%,39.99939%,39.99939%);stroke-opacity:1;stroke-miterlimit:3.25;" d="M 206.613281 237.519531 L 206.613281 235.121094 " transform="matrix(1,0,0,1,-66,-8)"/>
<path style="fill:none;stroke-width:0.2;stroke-linecap:butt;stroke-linejoin:miter;stroke:rgb(39.99939%,39.99939%,39.99939%);stroke-opacity:1;stroke-miterlimit:3.25;" d="M 216.460938 237.519531 L 216.460938 235.121094 " transform="matrix(1,0,0,1,-66,-8)"/>
<path style="fill:none;stroke-width:0.2;stroke-linecap:butt;stroke-linejoin:miter;stroke:rgb(39.99939%,39.99939%,39.99939%);stroke-opacity:1;stroke-miterlimit:3.25;" d="M 226.304688 237.519531 L 226.304688 235.121094 " transform="matrix(1,0,0,1,-66,-8)"/>
<path style="fill:none;stroke-width:0.2;stroke-linecap:butt;stroke-linejoin:miter;stroke:rgb(39.99939%,39.99939%,39.99939%);stroke-opacity:1;stroke-miterlimit:3.25;" d="M 236.152344 237.519531 L 236.152344 235.121094 " transform="matrix(1,0,0,1,-66,-8)"/>
<path style="fill:none;stroke-width:0.2;stroke-linecap:butt;stroke-linejoin:miter;stroke:rgb(39.99939%,39.99939%,39.99939%);stroke-opacity:1;stroke-miterlimit:3.25;" d="M 246 237.519531 L 246 233.519531 " transform="matrix(1,0,0,1,-66,-8)"/>
<g style="fill:rgb(0%,0%,0%);fill-opacity:1;">
  <use xlink:href="#glyph1-4" x="177.26625" y="242.12"/>
</g>
<path style="fill:none;stroke-width:0.2;stroke-linecap:butt;stroke-linejoin:miter;stroke:rgb(39.99939%,39.99939%,39.99939%);stroke-opacity:1;stroke-miterlimit:3.25;" d="M 255.847656 237.519531 L 255.847656 235.121094 " transform="matrix(1,0,0,1,-66,-8)"/>
<path style="fill:none;stroke-width:0.2;stroke-linecap:butt;stroke-linejoin:miter;stroke:rgb(39.99939%,39.99939%,39.99939%);stroke-opacity:1;stroke-miterlimit:3.25;" d="M 265.695312 237.519531 L 265.695312 235.121094 " transform="matrix(1,0,0,1,-66,-8)"/>
<path style="fill:none;stroke-width:0.2;stroke-linecap:butt;stroke-linejoin:miter;stroke:rgb(39.99939%,39.99939%,39.99939%);stroke-opacity:1;stroke-miterlimit:3.25;" d="M 275.539062 237.519531 L 275.539062 235.121094 " transform="matrix(1,0,0,1,-66,-8)"/>
<path style="fill:none;stroke-width:0.2;stroke-linecap:butt;stroke-linejoin:miter;stroke:rgb(39.99939%,39.99939%,39.99939%);stroke-opacity:1;stroke-miterlimit:3.25;" d="M 285.386719 237.519531 L 285.386719 235.121094 " transform="matrix(1,0,0,1,-66,-8)"/>
<path style="fill:none;stroke-width:0.2;stroke-linecap:butt;stroke-linejoin:miter;stroke:rgb(39.99939%,39.99939%,39.99939%);stroke-opacity:1;stroke-miterlimit:3.25;" d="M 295.234375 237.519531 L 295.234375 233.519531 " transform="matrix(1,0,0,1,-66,-8)"/>
<g style="fill:rgb(0%,0%,0%);fill-opacity:1;">
  <use xlink:href="#glyph1-3" x="226.500538" y="242.12"/>
</g>
<path style="fill:none;stroke-width:0.2;stroke-linecap:butt;stroke-linejoin:miter;stroke:rgb(39.99939%,39.99939%,39.99939%);stroke-opacity:1;stroke-miterlimit:3.25;" d="M 305.082031 237.519531 L 305.082031 235.121094 " transform="matrix(1,0,0,1,-66,-8)"/>
<path style="fill:none;stroke-width:0.2;stroke-linecap:butt;stroke-linejoin:miter;stroke:rgb(39.99939%,39.99939%,39.99939%);stroke-opacity:1;stroke-miterlimit:3.25;" d="M 314.929688 237.519531 L 314.929688 235.121094 " transform="matrix(1,0,0,1,-66,-8)"/>
<path style="fill:none;stroke-width:0.2;stroke-linecap:butt;stroke-linejoin:miter;stroke:rgb(39.99939%,39.99939%,39.99939%);stroke-opacity:1;stroke-miterlimit:3.25;" d="M 324.773438 237.519531 L 324.773438 235.121094 " transform="matrix(1,0,0,1,-66,-8)"/>
<path style="fill:none;stroke-width:0.2;stroke-linecap:butt;stroke-linejoin:miter;stroke:rgb(39.99939%,39.99939%,39.99939%);stroke-opacity:1;stroke-miterlimit:3.25;" d="M 334.621094 237.519531 L 334.621094 235.121094 " transform="matrix(1,0,0,1,-66,-8)"/>
<path style="fill:none;stroke-width:0.2;stroke-linecap:butt;stroke-linejoin:miter;stroke:rgb(39.99939%,39.99939%,39.99939%);stroke-opacity:1;stroke-miterlimit:3.25;" d="M 344.46875 237.519531 L 344.46875 233.519531 " transform="matrix(1,0,0,1,-66,-8)"/>
<g style="fill:rgb(0%,0%,0%);fill-opacity:1;">
  <use xlink:href="#glyph1-2" x="275.734825" y="242.12"/>
</g>
<path style="fill:none;stroke-width:0.2;stroke-linecap:butt;stroke-linejoin:miter;stroke:rgb(39.99939%,39.99939%,39.99939%);stroke-opacity:1;stroke-miterlimit:3.25;" d="M 354.316406 237.519531 L 354.316406 235.121094 " transform="matrix(1,0,0,1,-66,-8)"/>
<path style="fill:none;stroke-width:0.2;stroke-linecap:butt;stroke-linejoin:miter;stroke:rgb(39.99939%,39.99939%,39.99939%);stroke-opacity:1;stroke-miterlimit:3.25;" d="M 364.164062 237.519531 L 364.164062 235.121094 " transform="matrix(1,0,0,1,-66,-8)"/>
<path style="fill:none;stroke-width:0.2;stroke-linecap:butt;stroke-linejoin:miter;stroke:rgb(39.99939%,39.99939%,39.99939%);stroke-opacity:1;stroke-miterlimit:3.25;" d="M 374.007812 237.519531 L 374.007812 235.121094 " transform="matrix(1,0,0,1,-66,-8)"/>
<path style="fill:none;stroke-width:0.2;stroke-linecap:butt;stroke-linejoin:miter;stroke:rgb(39.99939%,39.99939%,39.99939%);stroke-opacity:1;stroke-miterlimit:3.25;" d="M 383.855469 237.519531 L 383.855469 235.121094 " transform="matrix(1,0,0,1,-66,-8)"/>
<path style="fill:none;stroke-width:0.2;stroke-linecap:butt;stroke-linejoin:miter;stroke:rgb(39.99939%,39.99939%,39.99939%);stroke-opacity:1;stroke-miterlimit:3.25;" d="M 393.703125 237.519531 L 393.703125 233.519531 " transform="matrix(1,0,0,1,-66,-8)"/>
<g style="fill:rgb(0%,0%,0%);fill-opacity:1;">
  <use xlink:href="#glyph1-1" x="324.969113" y="242.12"/>
</g>
<path style="fill:none;stroke-width:0.2;stroke-linecap:butt;stroke-linejoin:miter;stroke:rgb(39.99939%,39.99939%,39.99939%);stroke-opacity:1;stroke-miterlimit:3.25;" d="M 403.550781 237.519531 L 403.550781 235.121094 " transform="matrix(1,0,0,1,-66,-8)"/>
<path style="fill:none;stroke-width:0.2;stroke-linecap:butt;stroke-linejoin:miter;stroke:rgb(39.99939%,39.99939%,39.99939%);stroke-opacity:1;stroke-miterlimit:3.25;" d="M 413.398438 237.519531 L 413.398438 235.121094 " transform="matrix(1,0,0,1,-66,-8)"/>
<path style="fill:none;stroke-width:0.2;stroke-linecap:butt;stroke-linejoin:miter;stroke:rgb(39.99939%,39.99939%,39.99939%);stroke-opacity:1;stroke-miterlimit:3.25;" d="M 423.242188 237.519531 L 423.242188 235.121094 " transform="matrix(1,0,0,1,-66,-8)"/>
<path style="fill:none;stroke-width:0.2;stroke-linecap:butt;stroke-linejoin:miter;stroke:rgb(39.99939%,39.99939%,39.99939%);stroke-opacity:1;stroke-miterlimit:3.25;" d="M 66.5 237.519531 L 425.5 237.519531 " transform="matrix(1,0,0,1,-66,-8)"/>
<path style="fill:none;stroke-width:0.2;stroke-linecap:butt;stroke-linejoin:miter;stroke:rgb(39.99939%,39.99939%,39.99939%);stroke-opacity:1;stroke-miterlimit:3.25;" d="M 246 237.519531 L 250 237.519531 " transform="matrix(1,0,0,1,-66,-8)"/>
<path style="fill:none;stroke-width:0.2;stroke-linecap:butt;stroke-linejoin:miter;stroke:rgb(39.99939%,39.99939%,39.99939%);stroke-opacity:1;stroke-miterlimit:3.25;" d="M 246 226.425781 L 248.398438 226.425781 " transform="matrix(1,0,0,1,-66,-8)"/>
<path style="fill:none;stroke-width:0.2;stroke-linecap:butt;stroke-linejoin:miter;stroke:rgb(39.99939%,39.99939%,39.99939%);stroke-opacity:1;stroke-miterlimit:3.25;" d="M 246 215.332031 L 248.398438 215.332031 " transform="matrix(1,0,0,1,-66,-8)"/>
<path style="fill:none;stroke-width:0.2;stroke-linecap:butt;stroke-linejoin:miter;stroke:rgb(39.99939%,39.99939%,39.99939%);stroke-opacity:1;stroke-miterlimit:3.25;" d="M 246 204.238281 L 248.398438 204.238281 " transform="matrix(1,0,0,1,-66,-8)"/>
<path style="fill:none;stroke-width:0.2;stroke-linecap:butt;stroke-linejoin:miter;stroke:rgb(39.99939%,39.99939%,39.99939%);stroke-opacity:1;stroke-miterlimit:3.25;" d="M 246 193.144531 L 250 193.144531 " transform="matrix(1,0,0,1,-66,-8)"/>
<g style="fill:rgb(0%,0%,0%);fill-opacity:1;">
  <use xlink:href="#glyph1-4" x="163.33125" y="188.50516"/>
  <use xlink:href="#glyph1-5" x="168.878125" y="188.50516"/>
  <use xlink:href="#glyph1-2" x="171.64375" y="188.50516"/>
</g>
<path style="fill:none;stroke-width:0.2;stroke-linecap:butt;stroke-linejoin:miter;stroke:rgb(39.99939%,39.99939%,39.99939%);stroke-opacity:1;stroke-miterlimit:3.25;" d="M 246 182.050781 L 248.398438 182.050781 " transform="matrix(1,0,0,1,-66,-8)"/>
<path style="fill:none;stroke-width:0.2;stroke-linecap:butt;stroke-linejoin:miter;stroke:rgb(39.99939%,39.99939%,39.99939%);stroke-opacity:1;stroke-miterlimit:3.25;" d="M 246 170.957031 L 248.398438 170.957031 " transform="matrix(1,0,0,1,-66,-8)"/>
<path style="fill:none;stroke-width:0.2;stroke-linecap:butt;stroke-linejoin:miter;stroke:rgb(39.99939%,39.99939%,39.99939%);stroke-opacity:1;stroke-miterlimit:3.25;" d="M 246 159.863281 L 248.398438 159.863281 " transform="matrix(1,0,0,1,-66,-8)"/>
<path style="fill:none;stroke-width:0.2;stroke-linecap:butt;stroke-linejoin:miter;stroke:rgb(39.99939%,39.99939%,39.99939%);stroke-opacity:1;stroke-miterlimit:3.25;" d="M 246 148.769531 L 250 148.769531 " transform="matrix(1,0,0,1,-66,-8)"/>
<g style="fill:rgb(0%,0%,0%);fill-opacity:1;">
  <use xlink:href="#glyph1-4" x="163.33125" y="144.130319"/>
  <use xlink:href="#glyph1-5" x="168.878125" y="144.130319"/>
  <use xlink:href="#glyph1-6" x="171.64375" y="144.130319"/>
</g>
<path style="fill:none;stroke-width:0.2;stroke-linecap:butt;stroke-linejoin:miter;stroke:rgb(39.99939%,39.99939%,39.99939%);stroke-opacity:1;stroke-miterlimit:3.25;" d="M 246 137.675781 L 248.398438 137.675781 " transform="matrix(1,0,0,1,-66,-8)"/>
<path style="fill:none;stroke-width:0.2;stroke-linecap:butt;stroke-linejoin:miter;stroke:rgb(39.99939%,39.99939%,39.99939%);stroke-opacity:1;stroke-miterlimit:3.25;" d="M 246 126.582031 L 248.398438 126.582031 " transform="matrix(1,0,0,1,-66,-8)"/>
<path style="fill:none;stroke-width:0.2;stroke-linecap:butt;stroke-linejoin:miter;stroke:rgb(39.99939%,39.99939%,39.99939%);stroke-opacity:1;stroke-miterlimit:3.25;" d="M 246 115.488281 L 248.398438 115.488281 " transform="matrix(1,0,0,1,-66,-8)"/>
<path style="fill:none;stroke-width:0.2;stroke-linecap:butt;stroke-linejoin:miter;stroke:rgb(39.99939%,39.99939%,39.99939%);stroke-opacity:1;stroke-miterlimit:3.25;" d="M 246 104.394531 L 250 104.394531 " transform="matrix(1,0,0,1,-66,-8)"/>
<g style="fill:rgb(0%,0%,0%);fill-opacity:1;">
  <use xlink:href="#glyph1-4" x="163.33125" y="99.755479"/>
  <use xlink:href="#glyph1-5" x="168.878125" y="99.755479"/>
  <use xlink:href="#glyph1-7" x="171.64375" y="99.755479"/>
</g>
<path style="fill:none;stroke-width:0.2;stroke-linecap:butt;stroke-linejoin:miter;stroke:rgb(39.99939%,39.99939%,39.99939%);stroke-opacity:1;stroke-miterlimit:3.25;" d="M 246 93.300781 L 248.398438 93.300781 " transform="matrix(1,0,0,1,-66,-8)"/>
<path style="fill:none;stroke-width:0.2;stroke-linecap:butt;stroke-linejoin:miter;stroke:rgb(39.99939%,39.99939%,39.99939%);stroke-opacity:1;stroke-miterlimit:3.25;" d="M 246 82.207031 L 248.398438 82.207031 " transform="matrix(1,0,0,1,-66,-8)"/>
<path style="fill:none;stroke-width:0.2;stroke-linecap:butt;stroke-linejoin:miter;stroke:rgb(39.99939%,39.99939%,39.99939%);stroke-opacity:1;stroke-miterlimit:3.25;" d="M 246 71.113281 L 248.398438 71.113281 " transform="matrix(1,0,0,1,-66,-8)"/>
<path style="fill:none;stroke-width:0.2;stroke-linecap:butt;stroke-linejoin:miter;stroke:rgb(39.99939%,39.99939%,39.99939%);stroke-opacity:1;stroke-miterlimit:3.25;" d="M 246 60.019531 L 250 60.019531 " transform="matrix(1,0,0,1,-66,-8)"/>
<g style="fill:rgb(0%,0%,0%);fill-opacity:1;">
  <use xlink:href="#glyph1-4" x="163.33125" y="55.380638"/>
  <use xlink:href="#glyph1-5" x="168.878125" y="55.380638"/>
  <use xlink:href="#glyph1-8" x="171.64375" y="55.380638"/>
</g>
<path style="fill:none;stroke-width:0.2;stroke-linecap:butt;stroke-linejoin:miter;stroke:rgb(39.99939%,39.99939%,39.99939%);stroke-opacity:1;stroke-miterlimit:3.25;" d="M 246 48.925781 L 248.398438 48.925781 " transform="matrix(1,0,0,1,-66,-8)"/>
<path style="fill:none;stroke-width:0.2;stroke-linecap:butt;stroke-linejoin:miter;stroke:rgb(39.99939%,39.99939%,39.99939%);stroke-opacity:1;stroke-miterlimit:3.25;" d="M 246 37.832031 L 248.398438 37.832031 " transform="matrix(1,0,0,1,-66,-8)"/>
<path style="fill:none;stroke-width:0.2;stroke-linecap:butt;stroke-linejoin:miter;stroke:rgb(39.99939%,39.99939%,39.99939%);stroke-opacity:1;stroke-miterlimit:3.25;" d="M 246 26.738281 L 248.398438 26.738281 " transform="matrix(1,0,0,1,-66,-8)"/>
<path style="fill:none;stroke-width:0.2;stroke-linecap:butt;stroke-linejoin:miter;stroke:rgb(39.99939%,39.99939%,39.99939%);stroke-opacity:1;stroke-miterlimit:3.25;" d="M 246 15.644531 L 250 15.644531 " transform="matrix(1,0,0,1,-66,-8)"/>
<g style="fill:rgb(0%,0%,0%);fill-opacity:1;">
  <use xlink:href="#glyph1-3" x="163.33125" y="11.005798"/>
  <use xlink:href="#glyph1-5" x="168.878125" y="11.005798"/>
  <use xlink:href="#glyph1-4" x="171.64375" y="11.005798"/>
</g>
<path style="fill:none;stroke-width:0.2;stroke-linecap:butt;stroke-linejoin:miter;stroke:rgb(39.99939%,39.99939%,39.99939%);stroke-opacity:1;stroke-miterlimit:3.25;" d="M 246 237.519531 L 246 15.644531 " transform="matrix(1,0,0,1,-66,-8)"/>
<g clip-path="url(#clip2)" clip-rule="nonzero">
<path style="fill:none;stroke-width:1.6;stroke-linecap:square;stroke-linejoin:miter;stroke:rgb(36.84082%,50.67749%,70.979309%);stroke-opacity:1;stroke-miterlimit:3.25;" d="M 440.898438 83.152344 L 459.300781 83.152344 " transform="matrix(1,0,0,1,-66,-8)"/>
</g>
<g style="fill:rgb(0%,0%,0%);fill-opacity:1;">
  <use xlink:href="#glyph2-1" x="400.6" y="79.153125"/>
  <use xlink:href="#glyph2-2" x="411.428125" y="79.153125"/>
  <use xlink:href="#glyph2-3" x="419.365625" y="79.153125"/>
  <use xlink:href="#glyph2-3" x="423.69375" y="79.153125"/>
  <use xlink:href="#glyph2-4" x="428.021875" y="79.153125"/>
  <use xlink:href="#glyph2-5" x="435.240625" y="79.153125"/>
</g>
<g style="fill:rgb(0%,0%,0%);fill-opacity:1;">
  <use xlink:href="#glyph3-1" x="442.108893" y="79.153125"/>
</g>
<g style="fill:rgb(0%,0%,0%);fill-opacity:1;">
  <use xlink:href="#glyph3-2" x="452.935142" y="79.153125"/>
</g>
<g style="fill:rgb(0%,0%,0%);fill-opacity:1;">
  <use xlink:href="#glyph2-6" x="463.502642" y="79.153125"/>
  <use xlink:href="#glyph2-7" x="470.721392" y="79.153125"/>
  <use xlink:href="#glyph2-8" x="474.330767" y="79.153125"/>
</g>
<g clip-path="url(#clip3)" clip-rule="nonzero">
<path style="fill:none;stroke-width:1.6;stroke-linecap:square;stroke-linejoin:miter;stroke:rgb(88.070679%,61.103821%,14.204407%);stroke-opacity:1;stroke-miterlimit:3.25;" d="M 440.898438 106.554688 L 459.300781 106.554688 " transform="matrix(1,0,0,1,-66,-8)"/>
</g>
<g style="fill:rgb(0%,0%,0%);fill-opacity:1;">
  <use xlink:href="#glyph2-1" x="400.6" y="102.553125"/>
  <use xlink:href="#glyph2-2" x="411.428125" y="102.553125"/>
  <use xlink:href="#glyph2-3" x="419.365625" y="102.553125"/>
  <use xlink:href="#glyph2-3" x="423.69375" y="102.553125"/>
  <use xlink:href="#glyph2-4" x="428.021875" y="102.553125"/>
  <use xlink:href="#glyph2-5" x="435.240625" y="102.553125"/>
</g>
<g style="fill:rgb(0%,0%,0%);fill-opacity:1;">
  <use xlink:href="#glyph3-1" x="442.108893" y="102.553125"/>
</g>
<g style="fill:rgb(0%,0%,0%);fill-opacity:1;">
  <use xlink:href="#glyph3-2" x="452.935142" y="102.553125"/>
</g>
<g style="fill:rgb(0%,0%,0%);fill-opacity:1;">
  <use xlink:href="#glyph2-9" x="463.502642" y="102.553125"/>
</g>
<g clip-path="url(#clip4)" clip-rule="nonzero">
<path style="fill:none;stroke-width:1.6;stroke-linecap:square;stroke-linejoin:miter;stroke:rgb(56.016541%,69.155884%,19.488525%);stroke-opacity:1;stroke-miterlimit:3.25;" d="M 440.898438 129.953125 L 459.300781 129.953125 " transform="matrix(1,0,0,1,-66,-8)"/>
</g>
<g style="fill:rgb(0%,0%,0%);fill-opacity:1;">
  <use xlink:href="#glyph2-1" x="400.6" y="125.953125"/>
  <use xlink:href="#glyph2-2" x="411.428125" y="125.953125"/>
  <use xlink:href="#glyph2-3" x="419.365625" y="125.953125"/>
  <use xlink:href="#glyph2-3" x="423.69375" y="125.953125"/>
  <use xlink:href="#glyph2-4" x="428.021875" y="125.953125"/>
  <use xlink:href="#glyph2-5" x="435.240625" y="125.953125"/>
</g>
<g style="fill:rgb(0%,0%,0%);fill-opacity:1;">
  <use xlink:href="#glyph3-1" x="442.108893" y="125.953125"/>
</g>
<g style="fill:rgb(0%,0%,0%);fill-opacity:1;">
  <use xlink:href="#glyph3-2" x="452.935142" y="125.953125"/>
</g>
<g style="fill:rgb(0%,0%,0%);fill-opacity:1;">
  <use xlink:href="#glyph2-10" x="463.502642" y="125.953125"/>
</g>
<g clip-path="url(#clip5)" clip-rule="nonzero">
<path style="fill:none;stroke-width:1.6;stroke-linecap:square;stroke-linejoin:miter;stroke:rgb(92.251587%,38.562012%,20.918274%);stroke-opacity:1;stroke-miterlimit:3.25;" d="M 440.898438 153.351562 L 459.300781 153.351562 " transform="matrix(1,0,0,1,-66,-8)"/>
</g>
<g style="fill:rgb(0%,0%,0%);fill-opacity:1;">
  <use xlink:href="#glyph2-1" x="400.6" y="149.353125"/>
  <use xlink:href="#glyph2-2" x="411.428125" y="149.353125"/>
  <use xlink:href="#glyph2-3" x="419.365625" y="149.353125"/>
  <use xlink:href="#glyph2-3" x="423.69375" y="149.353125"/>
  <use xlink:href="#glyph2-4" x="428.021875" y="149.353125"/>
  <use xlink:href="#glyph2-5" x="435.240625" y="149.353125"/>
</g>
<g style="fill:rgb(0%,0%,0%);fill-opacity:1;">
  <use xlink:href="#glyph3-1" x="442.108893" y="149.353125"/>
</g>
<g style="fill:rgb(0%,0%,0%);fill-opacity:1;">
  <use xlink:href="#glyph3-2" x="452.935142" y="149.353125"/>
</g>
<g style="fill:rgb(0%,0%,0%);fill-opacity:1;">
  <use xlink:href="#glyph2-11" x="463.502642" y="149.353125"/>
  <use xlink:href="#glyph2-12" x="470.721392" y="149.353125"/>
</g>
<g clip-path="url(#clip6)" clip-rule="nonzero">
<path style="fill:none;stroke-width:1.6;stroke-linecap:square;stroke-linejoin:miter;stroke:rgb(52.84729%,47.061157%,70.133972%);stroke-opacity:1;stroke-miterlimit:3.25;" d="M 440.898438 176.753906 L 459.300781 176.753906 " transform="matrix(1,0,0,1,-66,-8)"/>
</g>
<g style="fill:rgb(0%,0%,0%);fill-opacity:1;">
  <use xlink:href="#glyph2-12" x="400.6" y="172.753125"/>
  <use xlink:href="#glyph2-7" x="407.81875" y="172.753125"/>
  <use xlink:href="#glyph2-11" x="411.428125" y="172.753125"/>
</g>
<g style="fill:rgb(0%,0%,0%);fill-opacity:1;">
  <use xlink:href="#glyph3-3" x="420.992642" y="172.753125"/>
</g>
<g style="fill:rgb(0%,0%,0%);fill-opacity:1;">
  <use xlink:href="#glyph2-13" x="425.305142" y="172.753125"/>
  <use xlink:href="#glyph2-14" x="433.242642" y="172.753125"/>
  <use xlink:href="#glyph2-15" x="445.508267" y="172.753125"/>
  <use xlink:href="#glyph2-1" x="453.445767" y="172.753125"/>
</g>
<g style="fill:rgb(0%,0%,0%);fill-opacity:1;">
  <use xlink:href="#glyph3-4" x="464.162642" y="172.753125"/>
</g>
</g>
</svg>
